,sigma,interval,TTmean,WTmean,Energy
0,3500.0,5.0,4358.0,1145.0,107608.0
1,3500.0,10.0,4298.0,1124.0,114202.0
2,3500.0,15.0,4071.0,1116.0,108636.0
3,3500.0,20.0,3969.0,1083.0,114219.0
4,3500.0,25.0,3650.0,1076.0,114032.0
5,3500.0,30.0,3574.0,1041.0,116922.0
6,3500.0,35.0,3733.0,1048.0,114732.0
7,3500.0,40.0,4008.0,1131.0,107185.0
8,3500.0,45.0,4202.0,1174.0,106248.0
9,3500.0,50.0,4540.0,1269.0,99200.0
10,3500.0,55.0,4433.0,1245.0,101936.0
11,3500.0,60.0,4439.0,1209.0,96204.0
12,3600.0,5.0,4272.0,1145.0,107437.0
13,3600.0,10.0,4257.0,1124.0,114059.0
14,3600.0,15.0,4288.0,1159.0,111105.0
15,3600.0,20.0,3884.0,1052.0,115298.0
16,3600.0,25.0,3922.0,1150.0,110817.0
17,3600.0,30.0,3555.0,1050.0,121550.0
18,3600.0,35.0,3682.0,1064.0,116109.0
19,3600.0,40.0,3876.0,1107.0,112220.0
20,3600.0,45.0,4258.0,1199.0,111354.0
21,3600.0,50.0,4334.0,1239.0,100782.0
22,3600.0,55.0,4476.0,1235.0,99977.0
23,3600.0,60.0,4334.0,1193.0,100589.0
24,3700.0,5.0,4273.0,1130.0,109007.0
25,3700.0,10.0,4152.0,1078.0,113910.0
26,3700.0,15.0,4271.0,1122.0,115017.0
27,3700.0,20.0,4007.0,1097.0,115294.0
28,3700.0,25.0,3658.0,1085.0,114161.0
29,3700.0,30.0,3447.0,1025.0,117860.0
30,3700.0,35.0,3686.0,1072.0,118267.0
31,3700.0,40.0,4035.0,1146.0,109866.0
32,3700.0,45.0,4289.0,1197.0,111672.0
33,3700.0,50.0,4542.0,1282.0,101352.0
34,3700.0,55.0,4363.0,1197.0,103931.0
35,3700.0,60.0,4596.0,1256.0,96004.0
36,3800.0,5.0,4405.0,1171.0,110298.0
37,3800.0,10.0,4257.0,1093.0,114532.0
38,3800.0,15.0,4404.0,1159.0,112713.0
39,3800.0,20.0,3818.0,1028.0,120909.0
40,3800.0,25.0,3754.0,1094.0,117403.0
41,3800.0,30.0,3480.0,1017.0,120870.0
42,3800.0,35.0,3837.0,1087.0,118956.0
43,3800.0,40.0,4102.0,1139.0,109684.0
44,3800.0,45.0,4066.0,1170.0,109094.0
45,3800.0,50.0,4518.0,1251.0,100758.0
46,3800.0,55.0,4419.0,1221.0,105534.0
47,3800.0,60.0,4439.0,1195.0,100731.0
48,3900.0,5.0,4406.0,1146.0,109811.0
49,3900.0,10.0,4291.0,1117.0,113933.0
50,3900.0,15.0,4077.0,1085.0,116024.0
51,3900.0,20.0,3941.0,1074.0,125319.0
52,3900.0,25.0,3888.0,1117.0,116091.0
53,3900.0,30.0,3506.0,1047.0,123720.0
54,3900.0,35.0,3725.0,1034.0,121496.0
55,3900.0,40.0,4153.0,1146.0,109311.0
56,3900.0,45.0,4205.0,1179.0,111319.0
57,3900.0,50.0,4446.0,1264.0,100796.0
58,3900.0,55.0,4435.0,1239.0,103795.0
59,3900.0,60.0,4584.0,1226.0,99385.0
60,4000.0,5.0,4421.0,1153.0,107106.0
61,4000.0,10.0,4344.0,1141.0,113909.0
62,4000.0,15.0,4115.0,1123.0,112131.0
63,4000.0,20.0,4076.0,1099.0,117648.0
64,4000.0,25.0,3598.0,1056.0,117534.0
65,4000.0,30.0,3652.0,1053.0,125194.0
66,4000.0,35.0,3525.0,1041.0,123561.0
67,4000.0,40.0,4021.0,1130.0,111806.0
68,4000.0,45.0,4246.0,1187.0,107258.0
69,4000.0,50.0,4517.0,1260.0,107335.0
70,4000.0,55.0,4441.0,1245.0,107634.0
71,4000.0,60.0,4441.0,1215.0,100051.0
72,4100.0,5.0,4493.0,1166.0,112848.0
73,4100.0,10.0,4147.0,1097.0,118506.0
74,4100.0,15.0,4319.0,1133.0,115877.0
75,4100.0,20.0,3885.0,1067.0,120276.0
76,4100.0,25.0,3850.0,1104.0,117701.0
77,4100.0,30.0,3620.0,1065.0,118005.0
78,4100.0,35.0,3771.0,1075.0,123575.0
79,4100.0,40.0,3932.0,1116.0,117203.0
80,4100.0,45.0,4371.0,1234.0,107618.0
81,4100.0,50.0,4466.0,1247.0,104056.0
82,4100.0,55.0,4452.0,1234.0,107108.0
83,4100.0,60.0,4561.0,1226.0,106214.0
84,4200.0,5.0,4386.0,1147.0,112840.0
85,4200.0,10.0,4519.0,1183.0,117980.0
86,4200.0,15.0,4318.0,1120.0,117023.0
87,4200.0,20.0,4028.0,1083.0,120721.0
88,4200.0,25.0,3744.0,1076.0,118751.0
89,4200.0,30.0,3754.0,1094.0,127357.0
90,4200.0,35.0,3579.0,1007.0,123203.0
91,4200.0,40.0,3894.0,1115.0,116831.0
92,4200.0,45.0,4254.0,1189.0,114100.0
93,4200.0,50.0,4528.0,1268.0,105838.0
94,4200.0,55.0,4423.0,1223.0,105253.0
95,4200.0,60.0,4862.0,1281.0,103220.0
96,4300.0,5.0,4326.0,1151.0,116425.0
97,4300.0,10.0,4198.0,1111.0,119762.0
98,4300.0,15.0,4133.0,1123.0,118384.0
99,4300.0,20.0,4014.0,1092.0,123974.0
100,4300.0,25.0,3804.0,1116.0,120260.0
101,4300.0,30.0,3527.0,1048.0,129892.0
102,4300.0,35.0,3691.0,1030.0,126536.0
103,4300.0,40.0,3929.0,1128.0,116116.0
104,4300.0,45.0,4178.0,1155.0,114419.0
105,4300.0,50.0,4283.0,1230.0,107378.0
106,4300.0,55.0,4754.0,1242.0,107626.0
107,4300.0,60.0,4581.0,1240.0,101974.0
108,4400.0,5.0,4468.0,1195.0,115706.0
109,4400.0,10.0,4225.0,1120.0,122729.0
110,4400.0,15.0,4328.0,1147.0,120437.0
111,4400.0,20.0,3963.0,1078.0,124819.0
112,4400.0,25.0,3854.0,1109.0,121523.0
113,4400.0,30.0,3674.0,1058.0,130080.0
114,4400.0,35.0,3644.0,1034.0,127812.0
115,4400.0,40.0,3901.0,1121.0,121141.0
116,4400.0,45.0,4318.0,1196.0,115571.0
117,4400.0,50.0,4318.0,1239.0,107536.0
118,4400.0,55.0,4414.0,1250.0,102487.0
119,4400.0,60.0,4480.0,1240.0,104742.0
120,4500.0,5.0,4265.0,1139.0,115334.0
121,4500.0,10.0,4222.0,1097.0,119850.0
122,4500.0,15.0,4176.0,1147.0,118489.0
123,4500.0,20.0,4005.0,1098.0,121989.0
124,4500.0,25.0,3689.0,1073.0,120815.0
125,4500.0,30.0,3537.0,1052.0,124276.0
126,4500.0,35.0,3747.0,1044.0,128926.0
127,4500.0,40.0,4035.0,1127.0,117889.0
128,4500.0,45.0,4359.0,1190.0,117361.0
129,4500.0,50.0,4463.0,1252.0,105812.0
130,4500.0,55.0,4364.0,1221.0,108963.0
131,4500.0,60.0,4563.0,1235.0,105573.0
132,4600.0,5.0,4611.0,1197.0,114970.0
133,4600.0,10.0,4288.0,1116.0,121296.0
134,4600.0,15.0,4183.0,1120.0,120309.0
135,4600.0,20.0,3999.0,1082.0,125176.0
136,4600.0,25.0,3668.0,1089.0,125564.0
137,4600.0,30.0,3622.0,1051.0,129565.0
138,4600.0,35.0,3718.0,1056.0,124875.0
139,4600.0,40.0,4105.0,1130.0,119203.0
140,4600.0,45.0,4139.0,1166.0,118586.0
141,4600.0,50.0,4421.0,1258.0,108116.0
142,4600.0,55.0,4508.0,1238.0,107693.0
143,4600.0,60.0,4658.0,1268.0,102165.0
144,4700.0,5.0,4418.0,1169.0,116918.0
145,4700.0,10.0,4468.0,1166.0,118386.0
146,4700.0,15.0,4106.0,1133.0,120263.0
147,4700.0,20.0,3831.0,1064.0,125731.0
148,4700.0,25.0,3714.0,1063.0,123257.0
149,4700.0,30.0,3580.0,1050.0,132397.0
150,4700.0,35.0,3752.0,1044.0,129176.0
151,4700.0,40.0,4156.0,1162.0,116661.0
152,4700.0,45.0,4191.0,1181.0,114749.0
153,4700.0,50.0,4623.0,1299.0,106564.0
154,4700.0,55.0,4325.0,1175.0,112286.0
155,4700.0,60.0,4544.0,1245.0,107522.0
156,4800.0,5.0,4542.0,1171.0,117987.0
157,4800.0,10.0,4174.0,1102.0,121770.0
158,4800.0,15.0,4221.0,1107.0,119171.0
159,4800.0,20.0,3883.0,1045.0,128418.0
160,4800.0,25.0,3756.0,1087.0,121910.0
161,4800.0,30.0,3592.0,1029.0,135231.0
162,4800.0,35.0,3674.0,1029.0,126328.0
163,4800.0,40.0,3907.0,1098.0,122678.0
164,4800.0,45.0,4346.0,1205.0,115983.0
165,4800.0,50.0,4475.0,1262.0,110806.0
166,4800.0,55.0,4561.0,1255.0,112144.0
167,4800.0,60.0,4299.0,1186.0,108230.0
168,4900.0,5.0,4331.0,1130.0,121355.0
169,4900.0,10.0,4211.0,1111.0,123220.0
170,4900.0,15.0,4350.0,1139.0,117072.0
171,4900.0,20.0,4056.0,1085.0,129194.0
172,4900.0,25.0,3849.0,1113.0,124163.0
173,4900.0,30.0,3601.0,1043.0,130582.0
174,4900.0,35.0,3797.0,1076.0,129457.0
175,4900.0,40.0,4098.0,1132.0,120431.0
176,4900.0,45.0,4398.0,1218.0,119093.0
177,4900.0,50.0,4463.0,1241.0,113084.0
178,4900.0,55.0,4562.0,1251.0,108511.0
179,4900.0,60.0,4665.0,1242.0,110172.0
180,5000.0,5.0,4427.0,1166.0,116010.0
181,5000.0,10.0,4157.0,1090.0,124329.0
182,5000.0,15.0,4129.0,1096.0,123545.0
183,5000.0,20.0,3975.0,1063.0,129235.0
184,5000.0,25.0,3718.0,1093.0,127137.0
185,5000.0,30.0,3657.0,1050.0,133282.0
186,5000.0,35.0,3944.0,1120.0,127531.0
187,5000.0,40.0,3979.0,1116.0,124961.0
188,5000.0,45.0,4269.0,1161.0,114003.0
189,5000.0,50.0,4490.0,1231.0,111456.0
190,5000.0,55.0,4435.0,1222.0,108927.0
191,5000.0,60.0,4630.0,1245.0,103998.0
192,3500.0,5.0,4503.0,1162.0,104590.0
193,3500.0,10.0,4209.0,1110.0,112539.0
194,3500.0,15.0,4064.0,1099.0,109061.0
195,3500.0,20.0,3731.0,1043.0,119515.0
196,3500.0,25.0,3815.0,1115.0,112705.0
197,3500.0,30.0,3720.0,1102.0,116239.0
198,3500.0,35.0,3708.0,1060.0,114544.0
199,3500.0,40.0,4026.0,1124.0,110642.0
200,3500.0,45.0,4265.0,1202.0,104787.0
201,3500.0,50.0,4404.0,1245.0,97974.0
202,3500.0,55.0,4427.0,1212.0,101659.0
203,3500.0,60.0,4436.0,1214.0,95663.0
204,3600.0,5.0,4462.0,1158.0,108622.0
205,3600.0,10.0,4342.0,1144.0,108978.0
206,3600.0,15.0,4435.0,1176.0,109263.0
207,3600.0,20.0,3975.0,1079.0,117261.0
208,3600.0,25.0,3809.0,1113.0,117187.0
209,3600.0,30.0,3541.0,1051.0,121974.0
210,3600.0,35.0,3790.0,1086.0,113553.0
211,3600.0,40.0,4095.0,1127.0,111313.0
212,3600.0,45.0,4262.0,1192.0,107760.0
213,3600.0,50.0,4317.0,1233.0,100308.0
214,3600.0,55.0,4520.0,1246.0,101688.0
215,3600.0,60.0,4360.0,1212.0,100706.0
216,3700.0,5.0,4401.0,1132.0,112357.0
217,3700.0,10.0,4352.0,1143.0,114123.0
218,3700.0,15.0,4178.0,1148.0,110949.0
219,3700.0,20.0,3857.0,1044.0,121807.0
220,3700.0,25.0,3699.0,1092.0,114491.0
221,3700.0,30.0,3733.0,1077.0,121188.0
222,3700.0,35.0,3781.0,1084.0,116307.0
223,3700.0,40.0,4155.0,1135.0,108482.0
224,3700.0,45.0,4349.0,1210.0,107245.0
225,3700.0,50.0,4596.0,1299.0,99953.0
226,3700.0,55.0,4152.0,1168.0,104373.0
227,3700.0,60.0,4561.0,1208.0,103165.0
228,3800.0,5.0,4381.0,1146.0,110127.0
229,3800.0,10.0,4287.0,1126.0,113715.0
230,3800.0,15.0,4099.0,1107.0,113105.0
231,3800.0,20.0,4091.0,1079.0,117665.0
232,3800.0,25.0,3850.0,1095.0,117311.0
233,3800.0,30.0,3562.0,1028.0,120922.0
234,3800.0,35.0,3784.0,1065.0,117843.0
235,3800.0,40.0,4074.0,1147.0,110698.0
236,3800.0,45.0,4315.0,1205.0,105915.0
237,3800.0,50.0,4450.0,1241.0,103823.0
238,3800.0,55.0,4413.0,1219.0,104647.0
239,3800.0,60.0,4655.0,1246.0,96819.0
240,3900.0,5.0,4217.0,1136.0,113784.0
241,3900.0,10.0,4322.0,1136.0,115107.0
242,3900.0,15.0,4107.0,1089.0,117567.0
243,3900.0,20.0,3963.0,1078.0,118782.0
244,3900.0,25.0,3771.0,1117.0,117472.0
245,3900.0,30.0,3593.0,1072.0,125879.0
246,3900.0,35.0,3901.0,1083.0,122606.0
247,3900.0,40.0,4132.0,1149.0,110493.0
248,3900.0,45.0,4294.0,1211.0,108384.0
249,3900.0,50.0,4583.0,1272.0,99174.0
250,3900.0,55.0,4323.0,1201.0,108828.0
251,3900.0,60.0,4675.0,1231.0,96339.0
252,4000.0,5.0,4508.0,1188.0,112601.0
253,4000.0,10.0,4436.0,1164.0,115880.0
254,4000.0,15.0,4085.0,1106.0,120665.0
255,4000.0,20.0,3977.0,1066.0,116195.0
256,4000.0,25.0,3640.0,1072.0,118555.0
257,4000.0,30.0,3537.0,1038.0,122704.0
258,4000.0,35.0,3743.0,1058.0,125075.0
259,4000.0,40.0,4081.0,1157.0,115081.0
260,4000.0,45.0,4133.0,1148.0,115908.0
261,4000.0,50.0,4611.0,1299.0,102823.0
262,4000.0,55.0,4579.0,1259.0,110056.0
263,4000.0,60.0,4631.0,1246.0,100176.0
264,4100.0,5.0,4245.0,1138.0,115953.0
265,4100.0,10.0,4294.0,1123.0,114533.0
266,4100.0,15.0,4031.0,1090.0,120795.0
267,4100.0,20.0,3812.0,1040.0,125184.0
268,4100.0,25.0,3721.0,1085.0,120611.0
269,4100.0,30.0,3657.0,1076.0,122038.0
270,4100.0,35.0,3705.0,1068.0,123319.0
271,4100.0,40.0,3904.0,1112.0,114727.0
272,4100.0,45.0,4239.0,1179.0,110624.0
273,4100.0,50.0,4425.0,1250.0,104139.0
274,4100.0,55.0,4448.0,1237.0,106163.0
275,4100.0,60.0,4732.0,1271.0,101911.0
276,4200.0,5.0,4402.0,1144.0,110789.0
277,4200.0,10.0,4300.0,1110.0,121470.0
278,4200.0,15.0,4194.0,1102.0,115516.0
279,4200.0,20.0,3929.0,1065.0,124904.0
280,4200.0,25.0,3530.0,1060.0,119873.0
281,4200.0,30.0,3539.0,1063.0,124619.0
282,4200.0,35.0,3730.0,1051.0,122995.0
283,4200.0,40.0,4170.0,1142.0,115903.0
284,4200.0,45.0,4333.0,1195.0,114207.0
285,4200.0,50.0,4439.0,1241.0,107321.0
286,4200.0,55.0,4518.0,1244.0,105765.0
287,4200.0,60.0,4613.0,1228.0,103819.0
288,4300.0,5.0,4397.0,1143.0,118458.0
289,4300.0,10.0,4336.0,1114.0,118088.0
290,4300.0,15.0,4158.0,1095.0,117213.0
291,4300.0,20.0,4062.0,1092.0,124769.0
292,4300.0,25.0,3832.0,1093.0,119709.0
293,4300.0,30.0,3617.0,1054.0,127119.0
294,4300.0,35.0,3877.0,1068.0,122938.0
295,4300.0,40.0,4247.0,1184.0,115534.0
296,4300.0,45.0,4141.0,1153.0,117585.0
297,4300.0,50.0,4464.0,1269.0,107504.0
298,4300.0,55.0,4418.0,1219.0,110325.0
299,4300.0,60.0,4599.0,1248.0,105162.0
300,4400.0,5.0,4455.0,1151.0,116886.0
301,4400.0,10.0,4181.0,1104.0,118390.0
302,4400.0,15.0,4293.0,1139.0,117529.0
303,4400.0,20.0,3928.0,1072.0,127102.0
304,4400.0,25.0,3602.0,1052.0,119909.0
305,4400.0,30.0,3527.0,1045.0,125761.0
306,4400.0,35.0,3699.0,1043.0,125458.0
307,4400.0,40.0,4013.0,1117.0,116209.0
308,4400.0,45.0,4164.0,1151.0,114983.0
309,4400.0,50.0,4484.0,1254.0,108446.0
310,4400.0,55.0,4399.0,1194.0,112368.0
311,4400.0,60.0,4576.0,1240.0,101766.0
312,4500.0,5.0,4456.0,1129.0,121094.0
313,4500.0,10.0,4367.0,1127.0,118669.0
314,4500.0,15.0,4339.0,1150.0,117912.0
315,4500.0,20.0,3921.0,1061.0,124266.0
316,4500.0,25.0,3792.0,1100.0,124271.0
317,4500.0,30.0,3626.0,1072.0,127058.0
318,4500.0,35.0,3677.0,1043.0,126446.0
319,4500.0,40.0,4004.0,1130.0,119211.0
320,4500.0,45.0,4308.0,1194.0,113979.0
321,4500.0,50.0,4381.0,1253.0,103980.0
322,4500.0,55.0,4377.0,1202.0,110697.0
323,4500.0,60.0,4524.0,1217.0,106181.0
324,4600.0,5.0,4437.0,1143.0,118198.0
325,4600.0,10.0,4416.0,1140.0,117900.0
326,4600.0,15.0,4053.0,1097.0,121976.0
327,4600.0,20.0,3982.0,1104.0,122265.0
328,4600.0,25.0,3678.0,1061.0,123745.0
329,4600.0,30.0,3531.0,1062.0,125193.0
330,4600.0,35.0,3879.0,1072.0,126981.0
331,4600.0,40.0,4032.0,1105.0,119808.0
332,4600.0,45.0,4377.0,1193.0,113566.0
333,4600.0,50.0,4363.0,1249.0,105626.0
334,4600.0,55.0,4465.0,1222.0,110137.0
335,4600.0,60.0,4734.0,1263.0,103901.0
336,4700.0,5.0,4493.0,1172.0,117548.0
337,4700.0,10.0,4488.0,1141.0,115344.0
338,4700.0,15.0,4225.0,1126.0,118650.0
339,4700.0,20.0,3836.0,1046.0,129281.0
340,4700.0,25.0,3787.0,1091.0,123017.0
341,4700.0,30.0,3662.0,1066.0,125464.0
342,4700.0,35.0,3869.0,1103.0,128669.0
343,4700.0,40.0,4029.0,1149.0,118119.0
344,4700.0,45.0,4353.0,1190.0,114376.0
345,4700.0,50.0,4455.0,1280.0,105518.0
346,4700.0,55.0,4591.0,1267.0,108701.0
347,4700.0,60.0,4574.0,1233.0,103328.0
348,4800.0,5.0,4426.0,1159.0,118518.0
349,4800.0,10.0,4369.0,1152.0,118804.0
350,4800.0,15.0,4197.0,1101.0,121680.0
351,4800.0,20.0,3877.0,1043.0,130772.0
352,4800.0,25.0,3887.0,1105.0,124034.0
353,4800.0,30.0,3642.0,1039.0,127292.0
354,4800.0,35.0,3708.0,1055.0,129071.0
355,4800.0,40.0,4038.0,1140.0,113983.0
356,4800.0,45.0,4183.0,1184.0,116511.0
357,4800.0,50.0,4436.0,1265.0,108428.0
358,4800.0,55.0,4452.0,1244.0,107003.0
359,4800.0,60.0,4585.0,1263.0,108526.0
360,4900.0,5.0,4459.0,1179.0,119898.0
361,4900.0,10.0,4289.0,1117.0,121062.0
362,4900.0,15.0,4122.0,1106.0,119401.0
363,4900.0,20.0,4011.0,1083.0,123691.0
364,4900.0,25.0,3667.0,1081.0,126903.0
365,4900.0,30.0,3475.0,1042.0,127228.0
366,4900.0,35.0,3828.0,1072.0,126233.0
367,4900.0,40.0,4061.0,1159.0,116391.0
368,4900.0,45.0,4278.0,1181.0,114342.0
369,4900.0,50.0,4268.0,1240.0,110163.0
370,4900.0,55.0,4461.0,1232.0,107547.0
371,4900.0,60.0,4509.0,1220.0,107226.0
372,5000.0,5.0,4455.0,1161.0,118122.0
373,5000.0,10.0,4302.0,1110.0,122793.0
374,5000.0,15.0,4196.0,1137.0,123854.0
375,5000.0,20.0,4031.0,1070.0,128023.0
376,5000.0,25.0,3770.0,1096.0,127538.0
377,5000.0,30.0,3665.0,1068.0,132757.0
378,5000.0,35.0,3696.0,1040.0,127014.0
379,5000.0,40.0,3969.0,1095.0,120723.0
380,5000.0,45.0,4305.0,1191.0,114848.0
381,5000.0,50.0,4675.0,1282.0,106376.0
382,5000.0,55.0,4543.0,1235.0,111975.0
383,5000.0,60.0,4668.0,1260.0,102282.0
384,3500.0,5.0,4496.0,1173.0,107451.0
385,3500.0,10.0,4337.0,1145.0,110020.0
386,3500.0,15.0,4097.0,1099.0,112368.0
387,3500.0,20.0,3902.0,1062.0,111607.0
388,3500.0,25.0,3763.0,1098.0,111490.0
389,3500.0,30.0,3473.0,1037.0,117006.0
390,3500.0,35.0,3767.0,1056.0,118762.0
391,3500.0,40.0,4006.0,1118.0,108804.0
392,3500.0,45.0,4227.0,1179.0,110023.0
393,3500.0,50.0,4381.0,1252.0,98526.0
394,3500.0,55.0,4346.0,1189.0,104067.0
395,3500.0,60.0,4487.0,1222.0,99751.0
396,3600.0,5.0,4295.0,1118.0,110165.0
397,3600.0,10.0,4310.0,1133.0,113066.0
398,3600.0,15.0,4393.0,1148.0,110345.0
399,3600.0,20.0,3916.0,1075.0,115424.0
400,3600.0,25.0,3692.0,1074.0,114365.0
401,3600.0,30.0,3557.0,1035.0,122947.0
402,3600.0,35.0,3766.0,1066.0,118449.0
403,3600.0,40.0,4068.0,1146.0,109132.0
404,3600.0,45.0,4258.0,1177.0,108224.0
405,3600.0,50.0,4534.0,1286.0,101951.0
406,3600.0,55.0,4535.0,1230.0,100267.0
407,3600.0,60.0,4594.0,1220.0,96385.0
408,3700.0,5.0,4434.0,1161.0,109719.0
409,3700.0,10.0,4387.0,1133.0,110407.0
410,3700.0,15.0,4165.0,1107.0,113734.0
411,3700.0,20.0,3945.0,1058.0,117360.0
412,3700.0,25.0,3784.0,1102.0,116862.0
413,3700.0,30.0,3546.0,1064.0,120869.0
414,3700.0,35.0,3805.0,1076.0,117964.0
415,3700.0,40.0,4156.0,1127.0,115504.0
416,3700.0,45.0,4300.0,1203.0,108730.0
417,3700.0,50.0,4540.0,1237.0,104957.0
418,3700.0,55.0,4218.0,1209.0,101902.0
419,3700.0,60.0,4564.0,1233.0,97321.0
420,3800.0,5.0,4299.0,1114.0,109956.0
421,3800.0,10.0,4334.0,1133.0,116459.0
422,3800.0,15.0,4249.0,1137.0,111492.0
423,3800.0,20.0,3766.0,1036.0,123328.0
424,3800.0,25.0,3704.0,1098.0,115054.0
425,3800.0,30.0,3469.0,1029.0,120698.0
426,3800.0,35.0,3762.0,1059.0,116255.0
427,3800.0,40.0,3853.0,1111.0,113531.0
428,3800.0,45.0,4213.0,1158.0,113676.0
429,3800.0,50.0,4596.0,1278.0,100939.0
430,3800.0,55.0,4547.0,1249.0,99868.0
431,3800.0,60.0,4573.0,1243.0,100209.0
432,3900.0,5.0,4341.0,1147.0,111810.0
433,3900.0,10.0,4191.0,1094.0,119498.0
434,3900.0,15.0,4215.0,1122.0,113015.0
435,3900.0,20.0,3990.0,1082.0,121712.0
436,3900.0,25.0,3666.0,1090.0,114655.0
437,3900.0,30.0,3762.0,1093.0,124617.0
438,3900.0,35.0,3756.0,1057.0,121025.0
439,3900.0,40.0,4100.0,1126.0,112683.0
440,3900.0,45.0,4315.0,1198.0,109492.0
441,3900.0,50.0,4481.0,1251.0,103382.0
442,3900.0,55.0,4392.0,1216.0,105971.0
443,3900.0,60.0,4672.0,1228.0,101744.0
444,4000.0,5.0,4301.0,1113.0,111215.0
445,4000.0,10.0,4397.0,1121.0,115109.0
446,4000.0,15.0,4154.0,1128.0,112536.0
447,4000.0,20.0,3892.0,1049.0,120581.0
448,4000.0,25.0,3759.0,1073.0,116816.0
449,4000.0,30.0,3626.0,1076.0,120753.0
450,4000.0,35.0,3870.0,1098.0,120806.0
451,4000.0,40.0,3978.0,1123.0,117665.0
452,4000.0,45.0,4278.0,1184.0,108332.0
453,4000.0,50.0,4405.0,1226.0,102912.0
454,4000.0,55.0,4492.0,1236.0,105953.0
455,4000.0,60.0,4592.0,1226.0,97926.0
456,4100.0,5.0,4256.0,1119.0,114233.0
457,4100.0,10.0,4361.0,1143.0,115995.0
458,4100.0,15.0,4060.0,1116.0,112138.0
459,4100.0,20.0,3729.0,1045.0,126385.0
460,4100.0,25.0,3816.0,1117.0,114148.0
461,4100.0,30.0,3516.0,1031.0,124669.0
462,4100.0,35.0,3868.0,1079.0,120116.0
463,4100.0,40.0,4104.0,1136.0,119874.0
464,4100.0,45.0,4277.0,1191.0,113253.0
465,4100.0,50.0,4522.0,1295.0,105104.0
466,4100.0,55.0,4311.0,1243.0,108918.0
467,4100.0,60.0,4519.0,1246.0,104294.0
468,4200.0,5.0,4515.0,1179.0,112676.0
469,4200.0,10.0,4184.0,1094.0,115759.0
470,4200.0,15.0,4068.0,1095.0,117415.0
471,4200.0,20.0,4012.0,1079.0,121982.0
472,4200.0,25.0,3740.0,1086.0,120437.0
473,4200.0,30.0,3391.0,1001.0,124695.0
474,4200.0,35.0,3764.0,1062.0,120659.0
475,4200.0,40.0,3948.0,1125.0,116332.0
476,4200.0,45.0,4259.0,1184.0,111720.0
477,4200.0,50.0,4426.0,1251.0,105213.0
478,4200.0,55.0,4405.0,1238.0,106375.0
479,4200.0,60.0,4672.0,1264.0,101282.0
480,4300.0,5.0,4478.0,1158.0,115554.0
481,4300.0,10.0,4424.0,1144.0,113879.0
482,4300.0,15.0,4220.0,1149.0,117399.0
483,4300.0,20.0,3870.0,1062.0,121471.0
484,4300.0,25.0,3722.0,1091.0,119717.0
485,4300.0,30.0,3705.0,1098.0,125184.0
486,4300.0,35.0,3803.0,1083.0,122515.0
487,4300.0,40.0,3972.0,1135.0,115019.0
488,4300.0,45.0,4195.0,1167.0,112821.0
489,4300.0,50.0,4448.0,1246.0,106354.0
490,4300.0,55.0,4582.0,1256.0,106789.0
491,4300.0,60.0,4467.0,1222.0,103634.0
492,4400.0,5.0,4443.0,1173.0,112852.0
493,4400.0,10.0,4364.0,1120.0,119551.0
494,4400.0,15.0,4154.0,1105.0,115554.0
495,4400.0,20.0,3929.0,1061.0,122538.0
496,4400.0,25.0,3783.0,1087.0,122246.0
497,4400.0,30.0,3551.0,1063.0,125754.0
498,4400.0,35.0,3863.0,1119.0,122971.0
499,4400.0,40.0,4066.0,1131.0,115795.0
500,4400.0,45.0,4332.0,1186.0,113997.0
501,4400.0,50.0,4561.0,1248.0,104797.0
502,4400.0,55.0,4438.0,1223.0,106930.0
503,4400.0,60.0,4572.0,1221.0,106199.0
504,4500.0,5.0,4374.0,1157.0,116947.0
505,4500.0,10.0,4254.0,1119.0,120247.0
506,4500.0,15.0,4175.0,1116.0,118735.0
507,4500.0,20.0,4052.0,1095.0,123516.0
508,4500.0,25.0,3902.0,1098.0,120232.0
509,4500.0,30.0,3580.0,1056.0,128780.0
510,4500.0,35.0,3803.0,1083.0,124767.0
511,4500.0,40.0,3924.0,1135.0,116865.0
512,4500.0,45.0,4266.0,1208.0,113077.0
513,4500.0,50.0,4438.0,1251.0,103185.0
514,4500.0,55.0,4495.0,1236.0,107807.0
515,4500.0,60.0,4562.0,1242.0,106269.0
516,4600.0,5.0,4380.0,1158.0,117036.0
517,4600.0,10.0,4267.0,1125.0,118932.0
518,4600.0,15.0,4037.0,1084.0,123977.0
519,4600.0,20.0,3820.0,1036.0,127613.0
520,4600.0,25.0,3814.0,1106.0,122326.0
521,4600.0,30.0,3730.0,1087.0,128223.0
522,4600.0,35.0,3980.0,1096.0,125545.0
523,4600.0,40.0,3893.0,1111.0,118322.0
524,4600.0,45.0,4185.0,1181.0,113644.0
525,4600.0,50.0,4480.0,1260.0,109234.0
526,4600.0,55.0,4484.0,1234.0,106642.0
527,4600.0,60.0,4497.0,1206.0,104617.0
528,4700.0,5.0,4420.0,1151.0,116985.0
529,4700.0,10.0,4310.0,1119.0,118614.0
530,4700.0,15.0,4202.0,1120.0,121802.0
531,4700.0,20.0,3992.0,1067.0,127651.0
532,4700.0,25.0,3828.0,1111.0,121206.0
533,4700.0,30.0,3564.0,1074.0,132554.0
534,4700.0,35.0,3853.0,1071.0,126378.0
535,4700.0,40.0,4021.0,1128.0,115674.0
536,4700.0,45.0,4262.0,1176.0,120598.0
537,4700.0,50.0,4449.0,1253.0,110102.0
538,4700.0,55.0,4505.0,1223.0,111952.0
539,4700.0,60.0,4447.0,1224.0,103705.0
540,4800.0,5.0,4625.0,1202.0,115969.0
541,4800.0,10.0,4372.0,1147.0,121590.0
542,4800.0,15.0,4070.0,1099.0,119784.0
543,4800.0,20.0,3832.0,1054.0,127600.0
544,4800.0,25.0,3753.0,1081.0,125076.0
545,4800.0,30.0,3492.0,1035.0,132675.0
546,4800.0,35.0,3696.0,1037.0,126181.0
547,4800.0,40.0,4040.0,1137.0,115979.0
548,4800.0,45.0,4400.0,1183.0,115242.0
549,4800.0,50.0,4595.0,1276.0,109894.0
550,4800.0,55.0,4496.0,1231.0,113057.0
551,4800.0,60.0,4680.0,1256.0,105030.0
552,4900.0,5.0,4318.0,1130.0,117905.0
553,4900.0,10.0,4422.0,1174.0,117622.0
554,4900.0,15.0,4084.0,1110.0,119492.0
555,4900.0,20.0,3779.0,1045.0,127483.0
556,4900.0,25.0,3745.0,1101.0,121202.0
557,4900.0,30.0,3737.0,1078.0,129594.0
558,4900.0,35.0,3796.0,1063.0,128847.0
559,4900.0,40.0,3969.0,1122.0,120451.0
560,4900.0,45.0,4244.0,1169.0,118411.0
561,4900.0,50.0,4394.0,1236.0,110414.0
562,4900.0,55.0,4479.0,1228.0,109017.0
563,4900.0,60.0,4623.0,1230.0,105680.0
564,5000.0,5.0,4463.0,1170.0,116412.0
565,5000.0,10.0,4324.0,1121.0,123407.0
566,5000.0,15.0,4081.0,1084.0,123465.0
567,5000.0,20.0,3819.0,1035.0,132647.0
568,5000.0,25.0,3784.0,1117.0,125240.0
569,5000.0,30.0,3505.0,1041.0,130655.0
570,5000.0,35.0,3832.0,1081.0,128296.0
571,5000.0,40.0,4019.0,1144.0,119970.0
572,5000.0,45.0,4311.0,1197.0,120457.0
573,5000.0,50.0,4285.0,1204.0,110208.0
574,5000.0,55.0,4489.0,1241.0,108196.0
575,5000.0,60.0,4715.0,1252.0,107691.0
576,3500.0,5.0,4522.0,1165.0,105611.0
577,3500.0,10.0,4248.0,1117.0,109805.0
578,3500.0,15.0,4128.0,1115.0,112120.0
579,3500.0,20.0,3789.0,1036.0,118513.0
580,3500.0,25.0,3908.0,1132.0,115686.0
581,3500.0,30.0,3578.0,1065.0,118890.0
582,3500.0,35.0,3572.0,1045.0,118030.0
583,3500.0,40.0,4110.0,1147.0,108212.0
584,3500.0,45.0,4131.0,1163.0,107704.0
585,3500.0,50.0,4298.0,1210.0,100726.0
586,3500.0,55.0,4418.0,1204.0,102428.0
587,3500.0,60.0,4584.0,1263.0,97922.0
588,3600.0,5.0,4354.0,1149.0,111007.0
589,3600.0,10.0,4295.0,1104.0,111756.0
590,3600.0,15.0,4180.0,1136.0,109488.0
591,3600.0,20.0,4081.0,1097.0,115777.0
592,3600.0,25.0,3737.0,1075.0,114111.0
593,3600.0,30.0,3531.0,1034.0,121355.0
594,3600.0,35.0,3753.0,1069.0,117465.0
595,3600.0,40.0,3893.0,1096.0,110321.0
596,3600.0,45.0,4228.0,1183.0,104893.0
597,3600.0,50.0,4518.0,1280.0,101712.0
598,3600.0,55.0,4417.0,1219.0,102457.0
599,3600.0,60.0,4694.0,1276.0,99947.0
600,3700.0,5.0,4550.0,1192.0,109744.0
601,3700.0,10.0,4191.0,1084.0,109784.0
602,3700.0,15.0,4189.0,1118.0,113032.0
603,3700.0,20.0,3842.0,1044.0,119687.0
604,3700.0,25.0,3737.0,1086.0,115292.0
605,3700.0,30.0,3603.0,1061.0,120999.0
606,3700.0,35.0,3656.0,1028.0,117950.0
607,3700.0,40.0,3927.0,1129.0,112259.0
608,3700.0,45.0,4182.0,1161.0,111348.0
609,3700.0,50.0,4475.0,1256.0,101358.0
610,3700.0,55.0,4684.0,1283.0,98510.0
611,3700.0,60.0,4674.0,1265.0,97774.0
612,3800.0,5.0,4540.0,1176.0,112302.0
613,3800.0,10.0,4422.0,1153.0,110461.0
614,3800.0,15.0,4009.0,1104.0,117153.0
615,3800.0,20.0,3804.0,1045.0,121327.0
616,3800.0,25.0,3830.0,1102.0,116834.0
617,3800.0,30.0,3549.0,1032.0,124727.0
618,3800.0,35.0,3962.0,1102.0,114205.0
619,3800.0,40.0,4154.0,1153.0,114931.0
620,3800.0,45.0,4221.0,1184.0,105858.0
621,3800.0,50.0,4505.0,1273.0,103596.0
622,3800.0,55.0,4440.0,1241.0,101847.0
623,3800.0,60.0,4513.0,1221.0,101621.0
624,3900.0,5.0,4248.0,1103.0,111301.0
625,3900.0,10.0,4098.0,1075.0,117198.0
626,3900.0,15.0,4144.0,1120.0,113714.0
627,3900.0,20.0,4022.0,1074.0,118775.0
628,3900.0,25.0,3612.0,1061.0,115078.0
629,3900.0,30.0,3610.0,1058.0,122843.0
630,3900.0,35.0,3791.0,1051.0,118722.0
631,3900.0,40.0,4029.0,1147.0,114502.0
632,3900.0,45.0,4113.0,1153.0,106733.0
633,3900.0,50.0,4547.0,1240.0,97987.0
634,3900.0,55.0,4492.0,1210.0,104791.0
635,3900.0,60.0,4492.0,1231.0,102927.0
636,4000.0,5.0,4337.0,1130.0,114618.0
637,4000.0,10.0,4180.0,1089.0,116211.0
638,4000.0,15.0,4308.0,1154.0,117564.0
639,4000.0,20.0,3839.0,1053.0,125386.0
640,4000.0,25.0,3719.0,1098.0,120490.0
641,4000.0,30.0,3570.0,1060.0,126291.0
642,4000.0,35.0,3862.0,1093.0,121445.0
643,4000.0,40.0,4084.0,1134.0,117648.0
644,4000.0,45.0,4302.0,1194.0,113772.0
645,4000.0,50.0,4364.0,1197.0,109129.0
646,4000.0,55.0,4375.0,1204.0,106146.0
647,4000.0,60.0,4807.0,1283.0,102161.0
648,4100.0,5.0,4306.0,1146.0,115896.0
649,4100.0,10.0,4227.0,1112.0,116110.0
650,4100.0,15.0,4141.0,1125.0,119111.0
651,4100.0,20.0,3875.0,1072.0,123751.0
652,4100.0,25.0,3803.0,1124.0,118101.0
653,4100.0,30.0,3476.0,1056.0,126415.0
654,4100.0,35.0,3933.0,1099.0,118990.0
655,4100.0,40.0,4066.0,1151.0,115253.0
656,4100.0,45.0,4292.0,1186.0,111027.0
657,4100.0,50.0,4244.0,1227.0,106634.0
658,4100.0,55.0,4549.0,1234.0,108854.0
659,4100.0,60.0,4528.0,1254.0,103967.0
660,4200.0,5.0,4271.0,1145.0,117860.0
661,4200.0,10.0,4235.0,1102.0,119949.0
662,4200.0,15.0,4167.0,1134.0,115845.0
663,4200.0,20.0,3813.0,1038.0,126621.0
664,4200.0,25.0,3699.0,1069.0,123204.0
665,4200.0,30.0,3530.0,1056.0,129321.0
666,4200.0,35.0,3759.0,1061.0,128251.0
667,4200.0,40.0,3978.0,1110.0,115762.0
668,4200.0,45.0,4262.0,1217.0,110438.0
669,4200.0,50.0,4477.0,1264.0,105478.0
670,4200.0,55.0,4471.0,1253.0,106421.0
671,4200.0,60.0,4712.0,1240.0,102606.0
672,4300.0,5.0,4388.0,1167.0,115395.0
673,4300.0,10.0,4239.0,1123.0,126709.0
674,4300.0,15.0,4124.0,1133.0,117060.0
675,4300.0,20.0,3982.0,1058.0,126578.0
676,4300.0,25.0,3754.0,1084.0,121913.0
677,4300.0,30.0,3760.0,1080.0,130430.0
678,4300.0,35.0,3749.0,1061.0,126204.0
679,4300.0,40.0,4115.0,1153.0,116284.0
680,4300.0,45.0,4103.0,1128.0,119576.0
681,4300.0,50.0,4434.0,1245.0,105953.0
682,4300.0,55.0,4497.0,1240.0,107662.0
683,4300.0,60.0,4587.0,1246.0,100443.0
684,4400.0,5.0,4268.0,1144.0,117676.0
685,4400.0,10.0,4310.0,1123.0,121411.0
686,4400.0,15.0,4363.0,1161.0,117346.0
687,4400.0,20.0,3924.0,1062.0,126116.0
688,4400.0,25.0,3801.0,1102.0,123475.0
689,4400.0,30.0,3636.0,1072.0,130472.0
690,4400.0,35.0,3807.0,1064.0,123898.0
691,4400.0,40.0,4263.0,1155.0,119546.0
692,4400.0,45.0,4187.0,1198.0,111379.0
693,4400.0,50.0,4378.0,1230.0,105365.0
694,4400.0,55.0,4581.0,1261.0,106934.0
695,4400.0,60.0,4679.0,1259.0,104474.0
696,4500.0,5.0,4382.0,1156.0,120034.0
697,4500.0,10.0,4344.0,1130.0,122988.0
698,4500.0,15.0,4052.0,1105.0,116062.0
699,4500.0,20.0,3988.0,1090.0,128615.0
700,4500.0,25.0,3615.0,1061.0,121499.0
701,4500.0,30.0,3505.0,1038.0,130446.0
702,4500.0,35.0,3719.0,1056.0,130995.0
703,4500.0,40.0,3992.0,1128.0,120051.0
704,4500.0,45.0,4222.0,1206.0,113067.0
705,4500.0,50.0,4444.0,1250.0,108795.0
706,4500.0,55.0,4415.0,1231.0,112835.0
707,4500.0,60.0,4650.0,1246.0,106139.0
708,4600.0,5.0,4274.0,1104.0,121148.0
709,4600.0,10.0,4276.0,1099.0,124172.0
710,4600.0,15.0,4139.0,1125.0,123627.0
711,4600.0,20.0,3941.0,1072.0,125168.0
712,4600.0,25.0,3570.0,1066.0,126048.0
713,4600.0,30.0,3567.0,1058.0,133671.0
714,4600.0,35.0,3760.0,1039.0,128748.0
715,4600.0,40.0,4124.0,1157.0,118922.0
716,4600.0,45.0,4382.0,1213.0,116722.0
717,4600.0,50.0,4445.0,1257.0,107547.0
718,4600.0,55.0,4359.0,1225.0,110337.0
719,4600.0,60.0,4449.0,1227.0,108321.0
720,4700.0,5.0,4548.0,1192.0,116149.0
721,4700.0,10.0,4248.0,1092.0,119297.0
722,4700.0,15.0,4304.0,1123.0,121106.0
723,4700.0,20.0,3802.0,1005.0,126778.0
724,4700.0,25.0,3878.0,1117.0,122201.0
725,4700.0,30.0,3645.0,1065.0,129019.0
726,4700.0,35.0,3771.0,1067.0,125209.0
727,4700.0,40.0,4055.0,1146.0,117945.0
728,4700.0,45.0,4190.0,1185.0,117350.0
729,4700.0,50.0,4443.0,1247.0,107162.0
730,4700.0,55.0,4713.0,1261.0,109504.0
731,4700.0,60.0,4572.0,1209.0,105440.0
732,4800.0,5.0,4419.0,1161.0,119968.0
733,4800.0,10.0,4180.0,1107.0,120151.0
734,4800.0,15.0,4284.0,1152.0,117036.0
735,4800.0,20.0,3802.0,1043.0,128462.0
736,4800.0,25.0,3725.0,1092.0,123045.0
737,4800.0,30.0,3555.0,1038.0,129996.0
738,4800.0,35.0,3844.0,1067.0,128801.0
739,4800.0,40.0,4215.0,1179.0,117521.0
740,4800.0,45.0,4242.0,1182.0,118318.0
741,4800.0,50.0,4475.0,1263.0,110478.0
742,4800.0,55.0,4631.0,1283.0,103432.0
743,4800.0,60.0,4616.0,1237.0,107241.0
744,4900.0,5.0,4463.0,1165.0,120389.0
745,4900.0,10.0,4253.0,1108.0,122470.0
746,4900.0,15.0,4201.0,1135.0,126251.0
747,4900.0,20.0,4007.0,1071.0,127027.0
748,4900.0,25.0,3663.0,1074.0,123443.0
749,4900.0,30.0,3672.0,1069.0,128710.0
750,4900.0,35.0,3785.0,1058.0,127618.0
751,4900.0,40.0,4025.0,1133.0,119551.0
752,4900.0,45.0,4439.0,1226.0,115481.0
753,4900.0,50.0,4265.0,1233.0,110853.0
754,4900.0,55.0,4491.0,1228.0,109522.0
755,4900.0,60.0,4490.0,1232.0,104843.0
756,5000.0,5.0,4354.0,1162.0,118663.0
757,5000.0,10.0,4239.0,1118.0,121901.0
758,5000.0,15.0,4269.0,1118.0,122748.0
759,5000.0,20.0,3900.0,1056.0,131051.0
760,5000.0,25.0,3720.0,1110.0,130428.0
761,5000.0,30.0,3564.0,1042.0,127605.0
762,5000.0,35.0,3659.0,1036.0,130004.0
763,5000.0,40.0,3999.0,1132.0,117758.0
764,5000.0,45.0,4257.0,1159.0,116257.0
765,5000.0,50.0,4490.0,1265.0,105959.0
766,5000.0,55.0,4435.0,1241.0,114358.0
767,5000.0,60.0,4588.0,1256.0,106075.0
768,3500.0,5.0,4262.0,1128.0,106669.0
769,3500.0,10.0,4289.0,1115.0,109389.0
770,3500.0,15.0,4144.0,1107.0,112489.0
771,3500.0,20.0,3903.0,1047.0,115003.0
772,3500.0,25.0,3779.0,1085.0,115404.0
773,3500.0,30.0,3559.0,1037.0,119507.0
774,3500.0,35.0,3765.0,1053.0,116154.0
775,3500.0,40.0,3966.0,1133.0,110211.0
776,3500.0,45.0,4307.0,1199.0,106395.0
777,3500.0,50.0,4617.0,1272.0,100554.0
778,3500.0,55.0,4462.0,1229.0,102423.0
779,3500.0,60.0,4637.0,1249.0,96890.0
780,3600.0,5.0,4315.0,1145.0,107682.0
781,3600.0,10.0,4478.0,1161.0,110299.0
782,3600.0,15.0,4171.0,1138.0,108884.0
783,3600.0,20.0,3894.0,1034.0,116362.0
784,3600.0,25.0,3764.0,1104.0,115520.0
785,3600.0,30.0,3728.0,1072.0,119808.0
786,3600.0,35.0,3912.0,1115.0,112147.0
787,3600.0,40.0,3895.0,1112.0,111449.0
788,3600.0,45.0,4100.0,1157.0,111973.0
789,3600.0,50.0,4401.0,1232.0,98088.0
790,3600.0,55.0,4578.0,1252.0,102583.0
791,3600.0,60.0,4692.0,1238.0,96756.0
792,3700.0,5.0,4303.0,1152.0,109425.0
793,3700.0,10.0,4416.0,1129.0,112093.0
794,3700.0,15.0,4049.0,1087.0,112248.0
795,3700.0,20.0,3859.0,1042.0,117180.0
796,3700.0,25.0,3803.0,1123.0,112251.0
797,3700.0,30.0,3614.0,1064.0,118193.0
798,3700.0,35.0,3790.0,1057.0,114386.0
799,3700.0,40.0,3780.0,1099.0,108897.0
800,3700.0,45.0,4400.0,1222.0,108508.0
801,3700.0,50.0,4615.0,1268.0,101381.0
802,3700.0,55.0,4493.0,1234.0,105624.0
803,3700.0,60.0,4467.0,1239.0,96819.0
804,3800.0,5.0,4477.0,1138.0,114335.0
805,3800.0,10.0,4174.0,1089.0,114046.0
806,3800.0,15.0,4176.0,1132.0,114015.0
807,3800.0,20.0,3938.0,1065.0,117555.0
808,3800.0,25.0,3786.0,1086.0,118109.0
809,3800.0,30.0,3603.0,1052.0,120435.0
810,3800.0,35.0,3775.0,1062.0,117567.0
811,3800.0,40.0,4119.0,1125.0,112005.0
812,3800.0,45.0,4381.0,1214.0,109443.0
813,3800.0,50.0,4582.0,1296.0,101124.0
814,3800.0,55.0,4423.0,1217.0,104994.0
815,3800.0,60.0,4567.0,1234.0,98857.0
816,3900.0,5.0,4555.0,1153.0,112000.0
817,3900.0,10.0,4220.0,1089.0,115879.0
818,3900.0,15.0,4197.0,1139.0,114554.0
819,3900.0,20.0,3973.0,1075.0,121997.0
820,3900.0,25.0,3730.0,1077.0,119882.0
821,3900.0,30.0,3585.0,1041.0,121476.0
822,3900.0,35.0,3738.0,1055.0,122325.0
823,3900.0,40.0,4127.0,1161.0,115107.0
824,3900.0,45.0,4101.0,1146.0,112686.0
825,3900.0,50.0,4523.0,1259.0,103938.0
826,3900.0,55.0,4532.0,1234.0,107486.0
827,3900.0,60.0,4600.0,1266.0,98033.0
828,4000.0,5.0,4467.0,1170.0,116699.0
829,4000.0,10.0,4364.0,1136.0,116543.0
830,4000.0,15.0,4204.0,1113.0,115783.0
831,4000.0,20.0,3955.0,1054.0,123942.0
832,4000.0,25.0,3718.0,1078.0,121021.0
833,4000.0,30.0,3556.0,1055.0,122349.0
834,4000.0,35.0,3785.0,1066.0,121583.0
835,4000.0,40.0,4073.0,1142.0,114536.0
836,4000.0,45.0,4152.0,1169.0,112215.0
837,4000.0,50.0,4360.0,1230.0,106264.0
838,4000.0,55.0,4385.0,1239.0,106230.0
839,4000.0,60.0,4439.0,1197.0,105927.0
840,4100.0,5.0,4415.0,1161.0,113996.0
841,4100.0,10.0,4174.0,1102.0,117983.0
842,4100.0,15.0,4005.0,1094.0,123002.0
843,4100.0,20.0,3971.0,1071.0,125886.0
844,4100.0,25.0,3783.0,1083.0,123860.0
845,4100.0,30.0,3433.0,1044.0,127133.0
846,4100.0,35.0,3642.0,1045.0,124576.0
847,4100.0,40.0,4103.0,1156.0,116044.0
848,4100.0,45.0,4198.0,1172.0,114097.0
849,4100.0,50.0,4538.0,1283.0,99727.0
850,4100.0,55.0,4513.0,1238.0,102536.0
851,4100.0,60.0,4502.0,1202.0,104651.0
852,4200.0,5.0,4362.0,1153.0,113317.0
853,4200.0,10.0,4299.0,1123.0,120869.0
854,4200.0,15.0,4206.0,1126.0,122509.0
855,4200.0,20.0,3999.0,1086.0,121605.0
856,4200.0,25.0,3638.0,1064.0,122189.0
857,4200.0,30.0,3826.0,1087.0,124863.0
858,4200.0,35.0,3827.0,1072.0,123993.0
859,4200.0,40.0,4207.0,1148.0,116060.0
860,4200.0,45.0,4370.0,1203.0,114993.0
861,4200.0,50.0,4488.0,1257.0,102463.0
862,4200.0,55.0,4311.0,1183.0,110908.0
863,4200.0,60.0,4439.0,1225.0,102138.0
864,4300.0,5.0,4469.0,1165.0,115937.0
865,4300.0,10.0,4191.0,1118.0,119939.0
866,4300.0,15.0,4115.0,1129.0,117852.0
867,4300.0,20.0,3898.0,1052.0,124782.0
868,4300.0,25.0,3752.0,1092.0,120932.0
869,4300.0,30.0,3550.0,1055.0,129644.0
870,4300.0,35.0,3708.0,1076.0,125944.0
871,4300.0,40.0,4110.0,1158.0,115254.0
872,4300.0,45.0,4317.0,1215.0,117328.0
873,4300.0,50.0,4566.0,1260.0,107708.0
874,4300.0,55.0,4363.0,1218.0,109506.0
875,4300.0,60.0,4678.0,1267.0,104740.0
876,4400.0,5.0,4222.0,1122.0,122718.0
877,4400.0,10.0,4293.0,1120.0,116406.0
878,4400.0,15.0,4181.0,1103.0,117891.0
879,4400.0,20.0,3930.0,1077.0,125069.0
880,4400.0,25.0,3871.0,1119.0,118074.0
881,4400.0,30.0,3576.0,1049.0,128101.0
882,4400.0,35.0,3840.0,1061.0,118845.0
883,4400.0,40.0,4036.0,1112.0,114437.0
884,4400.0,45.0,4189.0,1182.0,113259.0
885,4400.0,50.0,4612.0,1290.0,106765.0
886,4400.0,55.0,4400.0,1223.0,104494.0
887,4400.0,60.0,4601.0,1263.0,99063.0
888,4500.0,5.0,4367.0,1157.0,115780.0
889,4500.0,10.0,4361.0,1136.0,119247.0
890,4500.0,15.0,4138.0,1112.0,119838.0
891,4500.0,20.0,3842.0,1048.0,123600.0
892,4500.0,25.0,3718.0,1077.0,121285.0
893,4500.0,30.0,3648.0,1052.0,130995.0
894,4500.0,35.0,4054.0,1119.0,124499.0
895,4500.0,40.0,4202.0,1170.0,116593.0
896,4500.0,45.0,4395.0,1233.0,114803.0
897,4500.0,50.0,4392.0,1245.0,107574.0
898,4500.0,55.0,4382.0,1203.0,111918.0
899,4500.0,60.0,4505.0,1246.0,105621.0
900,4600.0,5.0,4399.0,1141.0,116951.0
901,4600.0,10.0,4272.0,1117.0,119269.0
902,4600.0,15.0,4179.0,1120.0,122959.0
903,4600.0,20.0,3939.0,1074.0,121645.0
904,4600.0,25.0,3612.0,1061.0,123251.0
905,4600.0,30.0,3494.0,1030.0,130336.0
906,4600.0,35.0,3817.0,1059.0,128078.0
907,4600.0,40.0,4108.0,1153.0,117461.0
908,4600.0,45.0,4338.0,1214.0,111851.0
909,4600.0,50.0,4295.0,1215.0,104538.0
910,4600.0,55.0,4516.0,1229.0,109345.0
911,4600.0,60.0,4597.0,1243.0,105968.0
912,4700.0,5.0,4387.0,1145.0,117330.0
913,4700.0,10.0,4148.0,1098.0,116280.0
914,4700.0,15.0,4130.0,1119.0,119457.0
915,4700.0,20.0,3859.0,1048.0,125524.0
916,4700.0,25.0,3577.0,1069.0,122126.0
917,4700.0,30.0,3510.0,1032.0,129547.0
918,4700.0,35.0,3806.0,1074.0,128569.0
919,4700.0,40.0,4010.0,1133.0,120425.0
920,4700.0,45.0,4279.0,1216.0,115115.0
921,4700.0,50.0,4433.0,1242.0,110247.0
922,4700.0,55.0,4412.0,1243.0,109025.0
923,4700.0,60.0,4714.0,1272.0,103113.0
924,4800.0,5.0,4227.0,1119.0,118657.0
925,4800.0,10.0,4325.0,1128.0,117177.0
926,4800.0,15.0,4213.0,1119.0,121345.0
927,4800.0,20.0,3771.0,1048.0,127041.0
928,4800.0,25.0,3692.0,1063.0,126671.0
929,4800.0,30.0,3537.0,1044.0,128327.0
930,4800.0,35.0,3732.0,1070.0,124520.0
931,4800.0,40.0,4038.0,1125.0,117818.0
932,4800.0,45.0,4204.0,1175.0,114017.0
933,4800.0,50.0,4424.0,1245.0,109047.0
934,4800.0,55.0,4613.0,1242.0,108813.0
935,4800.0,60.0,4403.0,1213.0,105509.0
936,4900.0,5.0,4297.0,1121.0,116716.0
937,4900.0,10.0,4263.0,1116.0,124953.0
938,4900.0,15.0,4276.0,1149.0,119035.0
939,4900.0,20.0,3769.0,1036.0,127388.0
940,4900.0,25.0,3805.0,1108.0,125163.0
941,4900.0,30.0,3527.0,1055.0,133427.0
942,4900.0,35.0,3724.0,1066.0,130973.0
943,4900.0,40.0,4018.0,1158.0,120013.0
944,4900.0,45.0,4360.0,1199.0,117869.0
945,4900.0,50.0,4319.0,1240.0,109762.0
946,4900.0,55.0,4555.0,1248.0,112203.0
947,4900.0,60.0,4336.0,1207.0,104903.0
948,5000.0,5.0,4404.0,1158.0,122039.0
949,5000.0,10.0,4318.0,1117.0,122694.0
950,5000.0,15.0,4264.0,1142.0,119677.0
951,5000.0,20.0,3781.0,1047.0,128661.0
952,5000.0,25.0,3697.0,1074.0,126731.0
953,5000.0,30.0,3743.0,1078.0,128452.0
954,5000.0,35.0,3771.0,1034.0,128543.0
955,5000.0,40.0,4099.0,1126.0,117355.0
956,5000.0,45.0,4354.0,1226.0,114151.0
957,5000.0,50.0,4400.0,1234.0,110838.0
958,5000.0,55.0,4329.0,1201.0,111151.0
959,5000.0,60.0,4438.0,1204.0,106349.0
960,3500.0,5.0,4583.0,1198.0,110165.0
961,3500.0,10.0,4184.0,1086.0,116360.0
962,3500.0,15.0,4189.0,1122.0,109083.0
963,3500.0,20.0,3857.0,1063.0,117407.0
964,3500.0,25.0,3748.0,1076.0,115036.0
965,3500.0,30.0,3593.0,1056.0,118592.0
966,3500.0,35.0,3639.0,1044.0,116065.0
967,3500.0,40.0,4039.0,1130.0,106785.0
968,3500.0,45.0,4185.0,1189.0,106069.0
969,3500.0,50.0,4560.0,1263.0,100409.0
970,3500.0,55.0,4819.0,1268.0,103452.0
971,3500.0,60.0,4451.0,1181.0,99666.0
972,3600.0,5.0,4523.0,1155.0,113510.0
973,3600.0,10.0,4404.0,1143.0,107183.0
974,3600.0,15.0,4125.0,1101.0,114726.0
975,3600.0,20.0,3826.0,1043.0,118965.0
976,3600.0,25.0,3789.0,1111.0,113195.0
977,3600.0,30.0,3557.0,1063.0,117472.0
978,3600.0,35.0,3911.0,1089.0,119854.0
979,3600.0,40.0,4161.0,1150.0,109848.0
980,3600.0,45.0,4367.0,1217.0,107144.0
981,3600.0,50.0,4383.0,1248.0,100567.0
982,3600.0,55.0,4469.0,1224.0,103239.0
983,3600.0,60.0,4577.0,1274.0,97655.0
984,3700.0,5.0,4565.0,1184.0,110040.0
985,3700.0,10.0,4164.0,1093.0,115500.0
986,3700.0,15.0,4117.0,1084.0,113289.0
987,3700.0,20.0,3734.0,1040.0,121117.0
988,3700.0,25.0,3657.0,1100.0,115587.0
989,3700.0,30.0,3576.0,1042.0,117037.0
990,3700.0,35.0,3783.0,1057.0,119789.0
991,3700.0,40.0,4036.0,1139.0,113369.0
992,3700.0,45.0,4365.0,1213.0,111096.0
993,3700.0,50.0,4618.0,1278.0,99005.0
994,3700.0,55.0,4369.0,1207.0,101563.0
995,3700.0,60.0,4672.0,1249.0,102808.0
996,3800.0,5.0,4516.0,1167.0,112233.0
997,3800.0,10.0,4095.0,1093.0,114608.0
998,3800.0,15.0,4277.0,1147.0,112166.0
999,3800.0,20.0,3912.0,1056.0,123325.0
1000,3800.0,25.0,3734.0,1079.0,118067.0
1001,3800.0,30.0,3476.0,1036.0,123109.0
1002,3800.0,35.0,3815.0,1076.0,119751.0
1003,3800.0,40.0,4062.0,1150.0,113852.0
1004,3800.0,45.0,4116.0,1167.0,111052.0
1005,3800.0,50.0,4360.0,1221.0,105134.0
1006,3800.0,55.0,4375.0,1221.0,104154.0
1007,3800.0,60.0,4537.0,1215.0,101515.0
1008,3900.0,5.0,4390.0,1145.0,112387.0
1009,3900.0,10.0,4426.0,1124.0,113998.0
1010,3900.0,15.0,4202.0,1122.0,114338.0
1011,3900.0,20.0,3879.0,1059.0,118126.0
1012,3900.0,25.0,3758.0,1106.0,116163.0
1013,3900.0,30.0,3626.0,1042.0,124786.0
1014,3900.0,35.0,3731.0,1065.0,119065.0
1015,3900.0,40.0,4189.0,1169.0,110518.0
1016,3900.0,45.0,4070.0,1144.0,113165.0
1017,3900.0,50.0,4586.0,1268.0,104643.0
1018,3900.0,55.0,4383.0,1232.0,104933.0
1019,3900.0,60.0,4557.0,1224.0,103236.0
1020,4000.0,5.0,4265.0,1124.0,114641.0
1021,4000.0,10.0,4336.0,1130.0,117666.0
1022,4000.0,15.0,4328.0,1145.0,114637.0
1023,4000.0,20.0,3996.0,1067.0,120474.0
1024,4000.0,25.0,3769.0,1093.0,114620.0
1025,4000.0,30.0,3612.0,1062.0,124394.0
1026,4000.0,35.0,3933.0,1094.0,120804.0
1027,4000.0,40.0,4102.0,1137.0,117950.0
1028,4000.0,45.0,4240.0,1187.0,110418.0
1029,4000.0,50.0,4481.0,1257.0,104378.0
1030,4000.0,55.0,4420.0,1223.0,105345.0
1031,4000.0,60.0,4595.0,1240.0,101031.0
1032,4100.0,5.0,4473.0,1144.0,114409.0
1033,4100.0,10.0,4385.0,1125.0,118974.0
1034,4100.0,15.0,4188.0,1128.0,118854.0
1035,4100.0,20.0,3963.0,1066.0,125592.0
1036,4100.0,25.0,3862.0,1118.0,121208.0
1037,4100.0,30.0,3548.0,1024.0,124402.0
1038,4100.0,35.0,3932.0,1104.0,120077.0
1039,4100.0,40.0,4034.0,1124.0,114536.0
1040,4100.0,45.0,4315.0,1199.0,110771.0
1041,4100.0,50.0,4418.0,1255.0,109384.0
1042,4100.0,55.0,4477.0,1220.0,106176.0
1043,4100.0,60.0,4452.0,1201.0,103770.0
1044,4200.0,5.0,4561.0,1171.0,112700.0
1045,4200.0,10.0,4163.0,1081.0,118823.0
1046,4200.0,15.0,4385.0,1170.0,113034.0
1047,4200.0,20.0,3848.0,1036.0,125080.0
1048,4200.0,25.0,3676.0,1057.0,122427.0
1049,4200.0,30.0,3631.0,1078.0,120825.0
1050,4200.0,35.0,3894.0,1091.0,124335.0
1051,4200.0,40.0,3920.0,1109.0,116118.0
1052,4200.0,45.0,4400.0,1232.0,111332.0
1053,4200.0,50.0,4511.0,1275.0,104914.0
1054,4200.0,55.0,4545.0,1222.0,107952.0
1055,4200.0,60.0,4534.0,1230.0,103247.0
1056,4300.0,5.0,4424.0,1152.0,114849.0
1057,4300.0,10.0,4505.0,1161.0,118522.0
1058,4300.0,15.0,4037.0,1102.0,121340.0
1059,4300.0,20.0,4028.0,1084.0,126257.0
1060,4300.0,25.0,3782.0,1086.0,119538.0
1061,4300.0,30.0,3532.0,1042.0,126083.0
1062,4300.0,35.0,3613.0,1021.0,126215.0
1063,4300.0,40.0,3953.0,1107.0,117877.0
1064,4300.0,45.0,4148.0,1158.0,114139.0
1065,4300.0,50.0,4486.0,1255.0,105727.0
1066,4300.0,55.0,4424.0,1231.0,107838.0
1067,4300.0,60.0,4405.0,1211.0,105808.0
1068,4400.0,5.0,4367.0,1133.0,117394.0
1069,4400.0,10.0,4098.0,1081.0,121742.0
1070,4400.0,15.0,4103.0,1121.0,123144.0
1071,4400.0,20.0,3908.0,1062.0,122819.0
1072,4400.0,25.0,3773.0,1104.0,124628.0
1073,4400.0,30.0,3671.0,1056.0,130586.0
1074,4400.0,35.0,3681.0,1050.0,127025.0
1075,4400.0,40.0,4008.0,1106.0,120184.0
1076,4400.0,45.0,4418.0,1200.0,112483.0
1077,4400.0,50.0,4535.0,1277.0,108030.0
1078,4400.0,55.0,4563.0,1277.0,106119.0
1079,4400.0,60.0,4852.0,1289.0,107071.0
1080,4500.0,5.0,4429.0,1158.0,116199.0
1081,4500.0,10.0,4232.0,1098.0,118471.0
1082,4500.0,15.0,4181.0,1130.0,118564.0
1083,4500.0,20.0,4042.0,1103.0,126714.0
1084,4500.0,25.0,3828.0,1116.0,124325.0
1085,4500.0,30.0,3586.0,1056.0,133382.0
1086,4500.0,35.0,3884.0,1099.0,128381.0
1087,4500.0,40.0,3973.0,1130.0,118136.0
1088,4500.0,45.0,4309.0,1217.0,113122.0
1089,4500.0,50.0,4379.0,1232.0,106554.0
1090,4500.0,55.0,4473.0,1207.0,112851.0
1091,4500.0,60.0,4633.0,1239.0,105274.0
1092,4600.0,5.0,4444.0,1154.0,114082.0
1093,4600.0,10.0,4373.0,1141.0,117513.0
1094,4600.0,15.0,4046.0,1080.0,124280.0
1095,4600.0,20.0,3862.0,1046.0,128133.0
1096,4600.0,25.0,3735.0,1080.0,125920.0
1097,4600.0,30.0,3510.0,1038.0,130713.0
1098,4600.0,35.0,3792.0,1073.0,127665.0
1099,4600.0,40.0,4030.0,1126.0,115236.0
1100,4600.0,45.0,4285.0,1177.0,113039.0
1101,4600.0,50.0,4494.0,1249.0,111170.0
1102,4600.0,55.0,4384.0,1218.0,111367.0
1103,4600.0,60.0,4439.0,1249.0,105283.0
1104,4700.0,5.0,4335.0,1125.0,121879.0
1105,4700.0,10.0,4267.0,1111.0,122009.0
1106,4700.0,15.0,3967.0,1079.0,121883.0
1107,4700.0,20.0,3727.0,1026.0,130730.0
1108,4700.0,25.0,3687.0,1058.0,120937.0
1109,4700.0,30.0,3506.0,1033.0,130274.0
1110,4700.0,35.0,3764.0,1065.0,124578.0
1111,4700.0,40.0,4014.0,1131.0,121175.0
1112,4700.0,45.0,4388.0,1209.0,113651.0
1113,4700.0,50.0,4415.0,1252.0,107937.0
1114,4700.0,55.0,4487.0,1214.0,110426.0
1115,4700.0,60.0,4617.0,1252.0,106636.0
1116,4800.0,5.0,4262.0,1103.0,119534.0
1117,4800.0,10.0,4285.0,1120.0,120147.0
1118,4800.0,15.0,4145.0,1116.0,125804.0
1119,4800.0,20.0,3817.0,1069.0,128587.0
1120,4800.0,25.0,3863.0,1116.0,124483.0
1121,4800.0,30.0,3670.0,1063.0,132080.0
1122,4800.0,35.0,3681.0,1032.0,127380.0
1123,4800.0,40.0,4012.0,1142.0,117562.0
1124,4800.0,45.0,4186.0,1193.0,119030.0
1125,4800.0,50.0,4487.0,1256.0,112496.0
1126,4800.0,55.0,4476.0,1230.0,109816.0
1127,4800.0,60.0,4605.0,1276.0,104563.0
1128,4900.0,5.0,4455.0,1161.0,119710.0
1129,4900.0,10.0,4298.0,1129.0,124044.0
1130,4900.0,15.0,4029.0,1092.0,124772.0
1131,4900.0,20.0,3963.0,1074.0,128286.0
1132,4900.0,25.0,3737.0,1089.0,125601.0
1133,4900.0,30.0,3458.0,1020.0,129122.0
1134,4900.0,35.0,3773.0,1057.0,132277.0
1135,4900.0,40.0,4139.0,1165.0,121659.0
1136,4900.0,45.0,4314.0,1187.0,116455.0
1137,4900.0,50.0,4617.0,1282.0,111873.0
1138,4900.0,55.0,4299.0,1222.0,110535.0
1139,4900.0,60.0,4499.0,1210.0,108081.0
1140,5000.0,5.0,4361.0,1153.0,120092.0
1141,5000.0,10.0,4380.0,1123.0,123746.0
1142,5000.0,15.0,4090.0,1098.0,125742.0
1143,5000.0,20.0,3821.0,1010.0,130209.0
1144,5000.0,25.0,3706.0,1076.0,125022.0
1145,5000.0,30.0,3568.0,1030.0,132522.0
1146,5000.0,35.0,3854.0,1077.0,131654.0
1147,5000.0,40.0,3959.0,1110.0,119988.0
1148,5000.0,45.0,4256.0,1177.0,117885.0
1149,5000.0,50.0,4388.0,1233.0,111302.0
1150,5000.0,55.0,4536.0,1259.0,110811.0
1151,5000.0,60.0,4463.0,1233.0,109838.0
1152,3500.0,5.0,4431.0,1164.0,107658.0
1153,3500.0,10.0,4431.0,1127.0,113307.0
1154,3500.0,15.0,4136.0,1132.0,108441.0
1155,3500.0,20.0,3890.0,1060.0,117993.0
1156,3500.0,25.0,3761.0,1073.0,115854.0
1157,3500.0,30.0,3647.0,1043.0,121130.0
1158,3500.0,35.0,3581.0,1031.0,117832.0
1159,3500.0,40.0,4107.0,1140.0,111432.0
1160,3500.0,45.0,4173.0,1153.0,109709.0
1161,3500.0,50.0,4577.0,1278.0,101612.0
1162,3500.0,55.0,4455.0,1214.0,104807.0
1163,3500.0,60.0,4459.0,1225.0,98527.0
1164,3600.0,5.0,4474.0,1140.0,110925.0
1165,3600.0,10.0,4252.0,1109.0,114761.0
1166,3600.0,15.0,4181.0,1132.0,112126.0
1167,3600.0,20.0,3876.0,1065.0,119084.0
1168,3600.0,25.0,3759.0,1095.0,115665.0
1169,3600.0,30.0,3768.0,1103.0,118849.0
1170,3600.0,35.0,3819.0,1067.0,116785.0
1171,3600.0,40.0,3982.0,1134.0,113148.0
1172,3600.0,45.0,4341.0,1205.0,105925.0
1173,3600.0,50.0,4522.0,1266.0,103083.0
1174,3600.0,55.0,4397.0,1232.0,102187.0
1175,3600.0,60.0,4501.0,1219.0,97190.0
1176,3700.0,5.0,4566.0,1168.0,113961.0
1177,3700.0,10.0,4436.0,1154.0,111973.0
1178,3700.0,15.0,4103.0,1110.0,115283.0
1179,3700.0,20.0,3831.0,1041.0,117839.0
1180,3700.0,25.0,3691.0,1057.0,118442.0
1181,3700.0,30.0,3631.0,1071.0,123451.0
1182,3700.0,35.0,3844.0,1095.0,117192.0
1183,3700.0,40.0,3807.0,1074.0,113236.0
1184,3700.0,45.0,4317.0,1194.0,110976.0
1185,3700.0,50.0,4563.0,1277.0,103507.0
1186,3700.0,55.0,4549.0,1252.0,102908.0
1187,3700.0,60.0,4535.0,1221.0,97971.0
1188,3800.0,5.0,4596.0,1171.0,109513.0
1189,3800.0,10.0,4385.0,1130.0,111122.0
1190,3800.0,15.0,3999.0,1108.0,113347.0
1191,3800.0,20.0,3901.0,1063.0,118282.0
1192,3800.0,25.0,3681.0,1087.0,120612.0
1193,3800.0,30.0,3690.0,1073.0,121973.0
1194,3800.0,35.0,3851.0,1082.0,118758.0
1195,3800.0,40.0,4096.0,1137.0,112093.0
1196,3800.0,45.0,4337.0,1199.0,110261.0
1197,3800.0,50.0,4481.0,1266.0,105550.0
1198,3800.0,55.0,4455.0,1249.0,102799.0
1199,3800.0,60.0,4590.0,1226.0,100394.0
1200,3900.0,5.0,4316.0,1136.0,109769.0
1201,3900.0,10.0,4201.0,1103.0,118554.0
1202,3900.0,15.0,4170.0,1134.0,111893.0
1203,3900.0,20.0,4054.0,1098.0,120340.0
1204,3900.0,25.0,3543.0,1061.0,116499.0
1205,3900.0,30.0,3573.0,1052.0,120971.0
1206,3900.0,35.0,3670.0,1045.0,118686.0
1207,3900.0,40.0,3922.0,1144.0,115272.0
1208,3900.0,45.0,4194.0,1187.0,114327.0
1209,3900.0,50.0,4469.0,1238.0,103317.0
1210,3900.0,55.0,4397.0,1219.0,101961.0
1211,3900.0,60.0,4568.0,1220.0,101236.0
1212,4000.0,5.0,4519.0,1186.0,110255.0
1213,4000.0,10.0,4364.0,1144.0,118222.0
1214,4000.0,15.0,4280.0,1134.0,109590.0
1215,4000.0,20.0,3860.0,1047.0,122342.0
1216,4000.0,25.0,3787.0,1102.0,116370.0
1217,4000.0,30.0,3517.0,1023.0,125799.0
1218,4000.0,35.0,3929.0,1091.0,116657.0
1219,4000.0,40.0,4022.0,1151.0,115909.0
1220,4000.0,45.0,4394.0,1216.0,110434.0
1221,4000.0,50.0,4322.0,1240.0,106237.0
1222,4000.0,55.0,4378.0,1216.0,106737.0
1223,4000.0,60.0,4585.0,1247.0,103033.0
1224,4100.0,5.0,4361.0,1136.0,112953.0
1225,4100.0,10.0,4332.0,1136.0,114967.0
1226,4100.0,15.0,4336.0,1145.0,113166.0
1227,4100.0,20.0,4026.0,1092.0,122489.0
1228,4100.0,25.0,3739.0,1067.0,121836.0
1229,4100.0,30.0,3446.0,1021.0,128597.0
1230,4100.0,35.0,3797.0,1072.0,119912.0
1231,4100.0,40.0,3985.0,1136.0,116285.0
1232,4100.0,45.0,4212.0,1173.0,111806.0
1233,4100.0,50.0,4480.0,1267.0,110191.0
1234,4100.0,55.0,4381.0,1216.0,103469.0
1235,4100.0,60.0,4717.0,1261.0,101291.0
1236,4200.0,5.0,4357.0,1141.0,111974.0
1237,4200.0,10.0,4323.0,1157.0,119580.0
1238,4200.0,15.0,4022.0,1096.0,117614.0
1239,4200.0,20.0,3807.0,1047.0,127478.0
1240,4200.0,25.0,3643.0,1070.0,117857.0
1241,4200.0,30.0,3608.0,1046.0,127475.0
1242,4200.0,35.0,3801.0,1071.0,122236.0
1243,4200.0,40.0,4084.0,1146.0,118456.0
1244,4200.0,45.0,4254.0,1177.0,111848.0
1245,4200.0,50.0,4470.0,1263.0,108139.0
1246,4200.0,55.0,4521.0,1258.0,109460.0
1247,4200.0,60.0,4625.0,1262.0,105207.0
1248,4300.0,5.0,4608.0,1177.0,115440.0
1249,4300.0,10.0,4427.0,1149.0,116128.0
1250,4300.0,15.0,4272.0,1138.0,113198.0
1251,4300.0,20.0,3837.0,1035.0,123237.0
1252,4300.0,25.0,3646.0,1064.0,121469.0
1253,4300.0,30.0,3550.0,1035.0,125977.0
1254,4300.0,35.0,3694.0,1038.0,119330.0
1255,4300.0,40.0,4271.0,1189.0,115507.0
1256,4300.0,45.0,4321.0,1197.0,107754.0
1257,4300.0,50.0,4471.0,1242.0,111209.0
1258,4300.0,55.0,4343.0,1217.0,108199.0
1259,4300.0,60.0,4700.0,1250.0,103096.0
1260,4400.0,5.0,4386.0,1139.0,114463.0
1261,4400.0,10.0,4456.0,1164.0,117156.0
1262,4400.0,15.0,4141.0,1129.0,113907.0
1263,4400.0,20.0,3863.0,1042.0,127983.0
1264,4400.0,25.0,3676.0,1088.0,118474.0
1265,4400.0,30.0,3686.0,1070.0,130836.0
1266,4400.0,35.0,3858.0,1083.0,118236.0
1267,4400.0,40.0,4029.0,1129.0,114705.0
1268,4400.0,45.0,4309.0,1175.0,109671.0
1269,4400.0,50.0,4441.0,1226.0,104878.0
1270,4400.0,55.0,4482.0,1242.0,104290.0
1271,4400.0,60.0,4458.0,1221.0,103613.0
1272,4500.0,5.0,4303.0,1125.0,117145.0
1273,4500.0,10.0,4294.0,1106.0,119255.0
1274,4500.0,15.0,4056.0,1082.0,112697.0
1275,4500.0,20.0,3783.0,1031.0,128449.0
1276,4500.0,25.0,3652.0,1094.0,123439.0
1277,4500.0,30.0,3578.0,1077.0,129096.0
1278,4500.0,35.0,3734.0,1058.0,127467.0
1279,4500.0,40.0,3997.0,1115.0,116131.0
1280,4500.0,45.0,4152.0,1168.0,117343.0
1281,4500.0,50.0,4512.0,1274.0,107111.0
1282,4500.0,55.0,4467.0,1213.0,108907.0
1283,4500.0,60.0,4673.0,1263.0,105327.0
1284,4600.0,5.0,4311.0,1147.0,112229.0
1285,4600.0,10.0,4265.0,1104.0,121827.0
1286,4600.0,15.0,4112.0,1100.0,118038.0
1287,4600.0,20.0,3864.0,1058.0,128793.0
1288,4600.0,25.0,3677.0,1072.0,127491.0
1289,4600.0,30.0,3371.0,1017.0,131319.0
1290,4600.0,35.0,3824.0,1074.0,128261.0
1291,4600.0,40.0,4007.0,1143.0,117041.0
1292,4600.0,45.0,4341.0,1213.0,109869.0
1293,4600.0,50.0,4552.0,1244.0,107135.0
1294,4600.0,55.0,4396.0,1208.0,109622.0
1295,4600.0,60.0,4542.0,1232.0,107471.0
1296,4700.0,5.0,4345.0,1129.0,119493.0
1297,4700.0,10.0,4119.0,1094.0,119879.0
1298,4700.0,15.0,4138.0,1145.0,117465.0
1299,4700.0,20.0,3851.0,1070.0,127169.0
1300,4700.0,25.0,3756.0,1097.0,122175.0
1301,4700.0,30.0,3661.0,1078.0,130098.0
1302,4700.0,35.0,3845.0,1065.0,122900.0
1303,4700.0,40.0,4029.0,1126.0,116175.0
1304,4700.0,45.0,4198.0,1172.0,115563.0
1305,4700.0,50.0,4562.0,1259.0,106444.0
1306,4700.0,55.0,4521.0,1246.0,109011.0
1307,4700.0,60.0,4744.0,1267.0,107831.0
1308,4800.0,5.0,4256.0,1141.0,117122.0
1309,4800.0,10.0,4291.0,1111.0,121175.0
1310,4800.0,15.0,4016.0,1120.0,118671.0
1311,4800.0,20.0,3902.0,1068.0,126197.0
1312,4800.0,25.0,3725.0,1092.0,126848.0
1313,4800.0,30.0,3584.0,1073.0,132419.0
1314,4800.0,35.0,3644.0,1027.0,128150.0
1315,4800.0,40.0,4053.0,1136.0,119815.0
1316,4800.0,45.0,4262.0,1209.0,114014.0
1317,4800.0,50.0,4456.0,1227.0,103972.0
1318,4800.0,55.0,4466.0,1229.0,112885.0
1319,4800.0,60.0,4718.0,1257.0,105040.0
1320,4900.0,5.0,4338.0,1153.0,114692.0
1321,4900.0,10.0,4221.0,1083.0,125866.0
1322,4900.0,15.0,4226.0,1132.0,120407.0
1323,4900.0,20.0,3923.0,1088.0,125934.0
1324,4900.0,25.0,3553.0,1054.0,125327.0
1325,4900.0,30.0,3495.0,1039.0,130590.0
1326,4900.0,35.0,3695.0,1049.0,127825.0
1327,4900.0,40.0,4088.0,1169.0,118708.0
1328,4900.0,45.0,4278.0,1213.0,115030.0
1329,4900.0,50.0,4486.0,1249.0,107519.0
1330,4900.0,55.0,4562.0,1241.0,109370.0
1331,4900.0,60.0,4866.0,1277.0,104165.0
1332,5000.0,5.0,4334.0,1134.0,122687.0
1333,5000.0,10.0,4291.0,1138.0,125778.0
1334,5000.0,15.0,4049.0,1123.0,122860.0
1335,5000.0,20.0,3841.0,1071.0,127221.0
1336,5000.0,25.0,3666.0,1096.0,126229.0
1337,5000.0,30.0,3620.0,1068.0,132677.0
1338,5000.0,35.0,3706.0,1050.0,130852.0
1339,5000.0,40.0,4038.0,1121.0,119060.0
1340,5000.0,45.0,4174.0,1171.0,117414.0
1341,5000.0,50.0,4526.0,1257.0,109404.0
1342,5000.0,55.0,4500.0,1240.0,108797.0
1343,5000.0,60.0,4492.0,1202.0,108578.0
1344,3500.0,5.0,4424.0,1157.0,110096.0
1345,3500.0,10.0,4333.0,1138.0,108072.0
1346,3500.0,15.0,4099.0,1112.0,108069.0
1347,3500.0,20.0,3961.0,1053.0,116155.0
1348,3500.0,25.0,3694.0,1087.0,111412.0
1349,3500.0,30.0,3641.0,1059.0,117423.0
1350,3500.0,35.0,3767.0,1054.0,116448.0
1351,3500.0,40.0,3899.0,1090.0,111951.0
1352,3500.0,45.0,4331.0,1196.0,107784.0
1353,3500.0,50.0,4237.0,1215.0,99951.0
1354,3500.0,55.0,4410.0,1212.0,100242.0
1355,3500.0,60.0,4544.0,1243.0,98876.0
1356,3600.0,5.0,4538.0,1176.0,106685.0
1357,3600.0,10.0,4355.0,1151.0,109906.0
1358,3600.0,15.0,4304.0,1148.0,112947.0
1359,3600.0,20.0,3740.0,1017.0,118002.0
1360,3600.0,25.0,3785.0,1095.0,113856.0
1361,3600.0,30.0,3651.0,1051.0,122615.0
1362,3600.0,35.0,3712.0,1055.0,116659.0
1363,3600.0,40.0,3964.0,1130.0,111930.0
1364,3600.0,45.0,4367.0,1208.0,106834.0
1365,3600.0,50.0,4343.0,1252.0,101672.0
1366,3600.0,55.0,4395.0,1204.0,102989.0
1367,3600.0,60.0,4585.0,1242.0,101097.0
1368,3700.0,5.0,4385.0,1154.0,111522.0
1369,3700.0,10.0,4196.0,1106.0,116124.0
1370,3700.0,15.0,4146.0,1108.0,113471.0
1371,3700.0,20.0,3939.0,1084.0,118929.0
1372,3700.0,25.0,3742.0,1090.0,114281.0
1373,3700.0,30.0,3639.0,1075.0,117432.0
1374,3700.0,35.0,3660.0,1033.0,117015.0
1375,3700.0,40.0,4293.0,1200.0,110016.0
1376,3700.0,45.0,4353.0,1232.0,107139.0
1377,3700.0,50.0,4405.0,1241.0,102354.0
1378,3700.0,55.0,4494.0,1243.0,107607.0
1379,3700.0,60.0,4494.0,1229.0,100970.0
1380,3800.0,5.0,4390.0,1156.0,108954.0
1381,3800.0,10.0,4173.0,1094.0,113181.0
1382,3800.0,15.0,4373.0,1161.0,115349.0
1383,3800.0,20.0,4028.0,1061.0,119888.0
1384,3800.0,25.0,3653.0,1092.0,117627.0
1385,3800.0,30.0,3564.0,1029.0,123721.0
1386,3800.0,35.0,3834.0,1078.0,121280.0
1387,3800.0,40.0,3960.0,1122.0,111803.0
1388,3800.0,45.0,4214.0,1183.0,110301.0
1389,3800.0,50.0,4483.0,1252.0,104486.0
1390,3800.0,55.0,4393.0,1224.0,104453.0
1391,3800.0,60.0,4632.0,1249.0,101829.0
1392,3900.0,5.0,4360.0,1139.0,109576.0
1393,3900.0,10.0,4229.0,1096.0,114906.0
1394,3900.0,15.0,4175.0,1125.0,117911.0
1395,3900.0,20.0,3925.0,1035.0,123686.0
1396,3900.0,25.0,3611.0,1054.0,117825.0
1397,3900.0,30.0,3468.0,1022.0,127297.0
1398,3900.0,35.0,3833.0,1065.0,120852.0
1399,3900.0,40.0,4032.0,1118.0,108224.0
1400,3900.0,45.0,4108.0,1137.0,113279.0
1401,3900.0,50.0,4489.0,1245.0,103327.0
1402,3900.0,55.0,4413.0,1214.0,106515.0
1403,3900.0,60.0,4668.0,1243.0,102043.0
1404,4000.0,5.0,4355.0,1128.0,114884.0
1405,4000.0,10.0,4342.0,1134.0,117059.0
1406,4000.0,15.0,4149.0,1100.0,116070.0
1407,4000.0,20.0,4090.0,1099.0,121865.0
1408,4000.0,25.0,3661.0,1078.0,116464.0
1409,4000.0,30.0,3502.0,1043.0,122467.0
1410,4000.0,35.0,3694.0,1065.0,121497.0
1411,4000.0,40.0,4047.0,1147.0,113524.0
1412,4000.0,45.0,4342.0,1195.0,109932.0
1413,4000.0,50.0,4336.0,1249.0,105217.0
1414,4000.0,55.0,4495.0,1235.0,105616.0
1415,4000.0,60.0,4564.0,1234.0,102251.0
1416,4100.0,5.0,4378.0,1121.0,113760.0
1417,4100.0,10.0,4144.0,1090.0,118559.0
1418,4100.0,15.0,4038.0,1100.0,119302.0
1419,4100.0,20.0,3900.0,1070.0,121648.0
1420,4100.0,25.0,3716.0,1064.0,118932.0
1421,4100.0,30.0,3522.0,1050.0,122605.0
1422,4100.0,35.0,3630.0,1013.0,121581.0
1423,4100.0,40.0,3984.0,1122.0,115535.0
1424,4100.0,45.0,4283.0,1186.0,113518.0
1425,4100.0,50.0,4450.0,1276.0,104291.0
1426,4100.0,55.0,4460.0,1227.0,107604.0
1427,4100.0,60.0,4454.0,1189.0,102402.0
1428,4200.0,5.0,4336.0,1129.0,112498.0
1429,4200.0,10.0,4246.0,1107.0,120135.0
1430,4200.0,15.0,4097.0,1097.0,113817.0
1431,4200.0,20.0,3961.0,1068.0,119363.0
1432,4200.0,25.0,3718.0,1077.0,117896.0
1433,4200.0,30.0,3654.0,1064.0,129236.0
1434,4200.0,35.0,3609.0,1033.0,123015.0
1435,4200.0,40.0,3920.0,1109.0,117890.0
1436,4200.0,45.0,4296.0,1215.0,110380.0
1437,4200.0,50.0,4349.0,1248.0,105338.0
1438,4200.0,55.0,4558.0,1224.0,105712.0
1439,4200.0,60.0,4565.0,1219.0,103581.0
1440,4300.0,5.0,4305.0,1129.0,116107.0
1441,4300.0,10.0,4256.0,1115.0,118479.0
1442,4300.0,15.0,4305.0,1161.0,115766.0
1443,4300.0,20.0,4110.0,1105.0,122766.0
1444,4300.0,25.0,3889.0,1117.0,119217.0
1445,4300.0,30.0,3704.0,1076.0,126027.0
1446,4300.0,35.0,3833.0,1093.0,123047.0
1447,4300.0,40.0,4046.0,1131.0,120577.0
1448,4300.0,45.0,4341.0,1202.0,116099.0
1449,4300.0,50.0,4572.0,1270.0,104833.0
1450,4300.0,55.0,4514.0,1244.0,107267.0
1451,4300.0,60.0,4696.0,1258.0,102561.0
1452,4400.0,5.0,4416.0,1154.0,113001.0
1453,4400.0,10.0,4097.0,1049.0,125664.0
1454,4400.0,15.0,4077.0,1093.0,117465.0
1455,4400.0,20.0,3953.0,1067.0,125446.0
1456,4400.0,25.0,3600.0,1065.0,121904.0
1457,4400.0,30.0,3562.0,1020.0,126021.0
1458,4400.0,35.0,3755.0,1052.0,123142.0
1459,4400.0,40.0,4099.0,1140.0,116493.0
1460,4400.0,45.0,4306.0,1210.0,113609.0
1461,4400.0,50.0,4557.0,1258.0,108910.0
1462,4400.0,55.0,4333.0,1200.0,107667.0
1463,4400.0,60.0,4447.0,1199.0,102800.0
1464,4500.0,5.0,4269.0,1135.0,118684.0
1465,4500.0,10.0,4228.0,1093.0,119781.0
1466,4500.0,15.0,4142.0,1115.0,118211.0
1467,4500.0,20.0,3767.0,1024.0,122763.0
1468,4500.0,25.0,3674.0,1073.0,122237.0
1469,4500.0,30.0,3663.0,1057.0,131805.0
1470,4500.0,35.0,3666.0,1038.0,126070.0
1471,4500.0,40.0,4051.0,1132.0,113866.0
1472,4500.0,45.0,4180.0,1182.0,109432.0
1473,4500.0,50.0,4360.0,1228.0,109244.0
1474,4500.0,55.0,4518.0,1242.0,106979.0
1475,4500.0,60.0,4779.0,1258.0,100625.0
1476,4600.0,5.0,4440.0,1164.0,119032.0
1477,4600.0,10.0,4198.0,1133.0,114741.0
1478,4600.0,15.0,4089.0,1105.0,118539.0
1479,4600.0,20.0,3761.0,1019.0,130069.0
1480,4600.0,25.0,3751.0,1086.0,124772.0
1481,4600.0,30.0,3627.0,1050.0,127521.0
1482,4600.0,35.0,3728.0,1042.0,129160.0
1483,4600.0,40.0,3973.0,1134.0,119905.0
1484,4600.0,45.0,4289.0,1201.0,116200.0
1485,4600.0,50.0,4664.0,1303.0,106159.0
1486,4600.0,55.0,4477.0,1240.0,109540.0
1487,4600.0,60.0,4598.0,1254.0,103786.0
1488,4700.0,5.0,4428.0,1155.0,120073.0
1489,4700.0,10.0,4135.0,1087.0,123404.0
1490,4700.0,15.0,4085.0,1100.0,121506.0
1491,4700.0,20.0,4012.0,1055.0,126594.0
1492,4700.0,25.0,3684.0,1072.0,122391.0
1493,4700.0,30.0,3492.0,1032.0,126929.0
1494,4700.0,35.0,3824.0,1071.0,125327.0
1495,4700.0,40.0,4003.0,1126.0,117421.0
1496,4700.0,45.0,4370.0,1210.0,114709.0
1497,4700.0,50.0,4503.0,1255.0,111794.0
1498,4700.0,55.0,4557.0,1288.0,105703.0
1499,4700.0,60.0,4603.0,1252.0,103576.0
1500,4800.0,5.0,4315.0,1113.0,118954.0
1501,4800.0,10.0,4289.0,1125.0,122131.0
1502,4800.0,15.0,4284.0,1118.0,121823.0
1503,4800.0,20.0,3764.0,1016.0,126019.0
1504,4800.0,25.0,3645.0,1071.0,124805.0
1505,4800.0,30.0,3643.0,1039.0,128431.0
1506,4800.0,35.0,3740.0,1054.0,124730.0
1507,4800.0,40.0,4088.0,1140.0,120456.0
1508,4800.0,45.0,4365.0,1207.0,110223.0
1509,4800.0,50.0,4368.0,1246.0,105526.0
1510,4800.0,55.0,4524.0,1247.0,112792.0
1511,4800.0,60.0,4604.0,1226.0,106487.0
1512,4900.0,5.0,4527.0,1184.0,119363.0
1513,4900.0,10.0,4270.0,1105.0,120992.0
1514,4900.0,15.0,4179.0,1112.0,122440.0
1515,4900.0,20.0,3824.0,1058.0,127225.0
1516,4900.0,25.0,3803.0,1088.0,125501.0
1517,4900.0,30.0,3617.0,1047.0,134263.0
1518,4900.0,35.0,3848.0,1068.0,125057.0
1519,4900.0,40.0,3965.0,1108.0,118030.0
1520,4900.0,45.0,4239.0,1187.0,116023.0
1521,4900.0,50.0,4280.0,1227.0,112166.0
1522,4900.0,55.0,4506.0,1242.0,108738.0
1523,4900.0,60.0,4500.0,1234.0,108975.0
1524,5000.0,5.0,4512.0,1150.0,119064.0
1525,5000.0,10.0,4162.0,1088.0,123017.0
1526,5000.0,15.0,4144.0,1140.0,119822.0
1527,5000.0,20.0,3967.0,1064.0,129379.0
1528,5000.0,25.0,3658.0,1079.0,126104.0
1529,5000.0,30.0,3560.0,1053.0,131905.0
1530,5000.0,35.0,3750.0,1065.0,127794.0
1531,5000.0,40.0,3927.0,1141.0,120435.0
1532,5000.0,45.0,4222.0,1188.0,113263.0
1533,5000.0,50.0,4425.0,1278.0,109745.0
1534,5000.0,55.0,4313.0,1201.0,114695.0
1535,5000.0,60.0,4542.0,1226.0,107756.0
1536,3500.0,5.0,4544.0,1170.0,109849.0
1537,3500.0,10.0,4347.0,1159.0,110298.0
1538,3500.0,15.0,4230.0,1132.0,112620.0
1539,3500.0,20.0,3866.0,1057.0,117442.0
1540,3500.0,25.0,3628.0,1088.0,113702.0
1541,3500.0,30.0,3573.0,1063.0,120445.0
1542,3500.0,35.0,3852.0,1081.0,119101.0
1543,3500.0,40.0,3968.0,1129.0,113271.0
1544,3500.0,45.0,4402.0,1218.0,106151.0
1545,3500.0,50.0,4450.0,1250.0,102898.0
1546,3500.0,55.0,4410.0,1227.0,102649.0
1547,3500.0,60.0,4630.0,1251.0,98447.0
1548,3600.0,5.0,4426.0,1161.0,109411.0
1549,3600.0,10.0,4417.0,1141.0,114922.0
1550,3600.0,15.0,4191.0,1128.0,111517.0
1551,3600.0,20.0,4092.0,1099.0,117243.0
1552,3600.0,25.0,3807.0,1098.0,112100.0
1553,3600.0,30.0,3638.0,1062.0,120997.0
1554,3600.0,35.0,3791.0,1080.0,119617.0
1555,3600.0,40.0,4036.0,1110.0,112346.0
1556,3600.0,45.0,4230.0,1186.0,107907.0
1557,3600.0,50.0,4508.0,1268.0,99443.0
1558,3600.0,55.0,4464.0,1242.0,102981.0
1559,3600.0,60.0,4670.0,1273.0,97419.0
1560,3700.0,5.0,4286.0,1135.0,113954.0
1561,3700.0,10.0,4359.0,1143.0,114032.0
1562,3700.0,15.0,4121.0,1109.0,112519.0
1563,3700.0,20.0,3830.0,1034.0,122203.0
1564,3700.0,25.0,3741.0,1092.0,115303.0
1565,3700.0,30.0,3709.0,1074.0,122336.0
1566,3700.0,35.0,3796.0,1084.0,120580.0
1567,3700.0,40.0,4089.0,1153.0,112810.0
1568,3700.0,45.0,4210.0,1191.0,112542.0
1569,3700.0,50.0,4585.0,1267.0,104058.0
1570,3700.0,55.0,4340.0,1213.0,106482.0
1571,3700.0,60.0,4628.0,1226.0,100961.0
1572,3800.0,5.0,4212.0,1123.0,113457.0
1573,3800.0,10.0,4199.0,1111.0,114357.0
1574,3800.0,15.0,4317.0,1133.0,117726.0
1575,3800.0,20.0,3859.0,1064.0,120990.0
1576,3800.0,25.0,3867.0,1113.0,113395.0
1577,3800.0,30.0,3437.0,1029.0,126344.0
1578,3800.0,35.0,3805.0,1053.0,122922.0
1579,3800.0,40.0,4058.0,1142.0,112997.0
1580,3800.0,45.0,4222.0,1179.0,107811.0
1581,3800.0,50.0,4556.0,1281.0,101331.0
1582,3800.0,55.0,4568.0,1247.0,104310.0
1583,3800.0,60.0,4435.0,1188.0,101421.0
1584,3900.0,5.0,4381.0,1133.0,114100.0
1585,3900.0,10.0,4174.0,1099.0,118446.0
1586,3900.0,15.0,4140.0,1104.0,116316.0
1587,3900.0,20.0,4114.0,1121.0,116403.0
1588,3900.0,25.0,3685.0,1102.0,116941.0
1589,3900.0,30.0,3562.0,1040.0,123155.0
1590,3900.0,35.0,3681.0,1058.0,120790.0
1591,3900.0,40.0,3983.0,1141.0,111661.0
1592,3900.0,45.0,4303.0,1206.0,110784.0
1593,3900.0,50.0,4510.0,1272.0,101776.0
1594,3900.0,55.0,4422.0,1248.0,105632.0
1595,3900.0,60.0,4608.0,1222.0,100964.0
1596,4000.0,5.0,4424.0,1164.0,116111.0
1597,4000.0,10.0,4078.0,1078.0,119730.0
1598,4000.0,15.0,4116.0,1114.0,117018.0
1599,4000.0,20.0,4006.0,1071.0,122309.0
1600,4000.0,25.0,3706.0,1103.0,121304.0
1601,4000.0,30.0,3523.0,1040.0,125394.0
1602,4000.0,35.0,3751.0,1061.0,122574.0
1603,4000.0,40.0,4052.0,1134.0,114209.0
1604,4000.0,45.0,4285.0,1211.0,108700.0
1605,4000.0,50.0,4415.0,1255.0,105299.0
1606,4000.0,55.0,4367.0,1225.0,108134.0
1607,4000.0,60.0,4615.0,1281.0,98181.0
1608,4100.0,5.0,4351.0,1141.0,109222.0
1609,4100.0,10.0,4388.0,1136.0,115509.0
1610,4100.0,15.0,4213.0,1107.0,114861.0
1611,4100.0,20.0,3767.0,1030.0,125948.0
1612,4100.0,25.0,3789.0,1084.0,117756.0
1613,4100.0,30.0,3738.0,1056.0,125505.0
1614,4100.0,35.0,3865.0,1085.0,119280.0
1615,4100.0,40.0,4056.0,1145.0,114146.0
1616,4100.0,45.0,4422.0,1215.0,111867.0
1617,4100.0,50.0,4631.0,1282.0,103020.0
1618,4100.0,55.0,4537.0,1232.0,105282.0
1619,4100.0,60.0,4423.0,1197.0,99448.0
1620,4200.0,5.0,4382.0,1155.0,112161.0
1621,4200.0,10.0,4386.0,1139.0,115067.0
1622,4200.0,15.0,4238.0,1124.0,116489.0
1623,4200.0,20.0,4033.0,1077.0,123311.0
1624,4200.0,25.0,3696.0,1088.0,120677.0
1625,4200.0,30.0,3781.0,1100.0,126469.0
1626,4200.0,35.0,3840.0,1083.0,123774.0
1627,4200.0,40.0,4057.0,1137.0,114337.0
1628,4200.0,45.0,4426.0,1219.0,110217.0
1629,4200.0,50.0,4483.0,1250.0,105045.0
1630,4200.0,55.0,4442.0,1246.0,107504.0
1631,4200.0,60.0,4707.0,1266.0,100651.0
1632,4300.0,5.0,4309.0,1150.0,113147.0
1633,4300.0,10.0,4302.0,1129.0,119901.0
1634,4300.0,15.0,4156.0,1129.0,118944.0
1635,4300.0,20.0,3887.0,1057.0,122456.0
1636,4300.0,25.0,3739.0,1066.0,121022.0
1637,4300.0,30.0,3632.0,1067.0,125309.0
1638,4300.0,35.0,3627.0,1026.0,126535.0
1639,4300.0,40.0,4177.0,1170.0,110773.0
1640,4300.0,45.0,4410.0,1200.0,116744.0
1641,4300.0,50.0,4531.0,1261.0,105668.0
1642,4300.0,55.0,4441.0,1229.0,108231.0
1643,4300.0,60.0,4487.0,1242.0,105343.0
1644,4400.0,5.0,4429.0,1170.0,113198.0
1645,4400.0,10.0,4288.0,1123.0,119493.0
1646,4400.0,15.0,4292.0,1144.0,117973.0
1647,4400.0,20.0,3945.0,1062.0,122885.0
1648,4400.0,25.0,3840.0,1103.0,123062.0
1649,4400.0,30.0,3633.0,1068.0,126733.0
1650,4400.0,35.0,3650.0,1064.0,125096.0
1651,4400.0,40.0,4023.0,1144.0,116869.0
1652,4400.0,45.0,4270.0,1187.0,113827.0
1653,4400.0,50.0,4678.0,1310.0,102519.0
1654,4400.0,55.0,4394.0,1222.0,106493.0
1655,4400.0,60.0,4443.0,1228.0,103194.0
1656,4500.0,5.0,4380.0,1151.0,115810.0
1657,4500.0,10.0,4215.0,1100.0,119006.0
1658,4500.0,15.0,4246.0,1126.0,118997.0
1659,4500.0,20.0,3875.0,1049.0,126438.0
1660,4500.0,25.0,3665.0,1057.0,120137.0
1661,4500.0,30.0,3488.0,1022.0,126704.0
1662,4500.0,35.0,3808.0,1082.0,124157.0
1663,4500.0,40.0,3945.0,1119.0,116360.0
1664,4500.0,45.0,4264.0,1212.0,112173.0
1665,4500.0,50.0,4513.0,1292.0,104267.0
1666,4500.0,55.0,4406.0,1217.0,107705.0
1667,4500.0,60.0,4659.0,1252.0,103524.0
1668,4600.0,5.0,4428.0,1129.0,120227.0
1669,4600.0,10.0,4202.0,1120.0,118866.0
1670,4600.0,15.0,4127.0,1112.0,123578.0
1671,4600.0,20.0,3826.0,1053.0,125327.0
1672,4600.0,25.0,3692.0,1056.0,122206.0
1673,4600.0,30.0,3640.0,1073.0,126458.0
1674,4600.0,35.0,3702.0,1055.0,127022.0
1675,4600.0,40.0,4094.0,1117.0,115286.0
1676,4600.0,45.0,4463.0,1247.0,113241.0
1677,4600.0,50.0,4452.0,1240.0,107573.0
1678,4600.0,55.0,4536.0,1250.0,106764.0
1679,4600.0,60.0,4429.0,1199.0,102799.0
1680,4700.0,5.0,4520.0,1175.0,121012.0
1681,4700.0,10.0,4238.0,1112.0,123280.0
1682,4700.0,15.0,4078.0,1072.0,123190.0
1683,4700.0,20.0,3966.0,1065.0,127019.0
1684,4700.0,25.0,3829.0,1119.0,123803.0
1685,4700.0,30.0,3619.0,1063.0,130836.0
1686,4700.0,35.0,3818.0,1078.0,125060.0
1687,4700.0,40.0,3917.0,1098.0,122715.0
1688,4700.0,45.0,4206.0,1166.0,118378.0
1689,4700.0,50.0,4526.0,1258.0,108558.0
1690,4700.0,55.0,4410.0,1209.0,109644.0
1691,4700.0,60.0,4459.0,1221.0,106326.0
1692,4800.0,5.0,4539.0,1171.0,116214.0
1693,4800.0,10.0,4440.0,1145.0,120813.0
1694,4800.0,15.0,4241.0,1127.0,117329.0
1695,4800.0,20.0,3827.0,1035.0,128170.0
1696,4800.0,25.0,3670.0,1070.0,125871.0
1697,4800.0,30.0,3592.0,1052.0,133488.0
1698,4800.0,35.0,3724.0,1076.0,132271.0
1699,4800.0,40.0,3970.0,1126.0,121486.0
1700,4800.0,45.0,4356.0,1198.0,117804.0
1701,4800.0,50.0,4448.0,1251.0,109666.0
1702,4800.0,55.0,4457.0,1233.0,107354.0
1703,4800.0,60.0,4617.0,1237.0,107060.0
1704,4900.0,5.0,4292.0,1118.0,122453.0
1705,4900.0,10.0,4263.0,1098.0,124177.0
1706,4900.0,15.0,4239.0,1162.0,122895.0
1707,4900.0,20.0,3970.0,1072.0,125472.0
1708,4900.0,25.0,3746.0,1088.0,127749.0
1709,4900.0,30.0,3675.0,1095.0,129814.0
1710,4900.0,35.0,3706.0,1082.0,129936.0
1711,4900.0,40.0,3997.0,1122.0,121283.0
1712,4900.0,45.0,4126.0,1184.0,120122.0
1713,4900.0,50.0,4402.0,1252.0,108702.0
1714,4900.0,55.0,4578.0,1238.0,112327.0
1715,4900.0,60.0,4525.0,1243.0,110519.0
1716,5000.0,5.0,4584.0,1166.0,120508.0
1717,5000.0,10.0,4402.0,1135.0,120411.0
1718,5000.0,15.0,4131.0,1109.0,127208.0
1719,5000.0,20.0,3859.0,1068.0,127351.0
1720,5000.0,25.0,3801.0,1103.0,126189.0
1721,5000.0,30.0,3673.0,1067.0,133076.0
1722,5000.0,35.0,3593.0,1032.0,131627.0
1723,5000.0,40.0,3977.0,1103.0,123574.0
1724,5000.0,45.0,4328.0,1207.0,116447.0
1725,5000.0,50.0,4406.0,1244.0,110249.0
1726,5000.0,55.0,4473.0,1232.0,111581.0
1727,5000.0,60.0,4502.0,1228.0,102897.0
1728,3500.0,5.0,4407.0,1157.0,110286.0
1729,3500.0,10.0,4349.0,1138.0,110268.0
1730,3500.0,15.0,4326.0,1147.0,110356.0
1731,3500.0,20.0,4030.0,1080.0,114597.0
1732,3500.0,25.0,3722.0,1098.0,116304.0
1733,3500.0,30.0,3476.0,1023.0,116310.0
1734,3500.0,35.0,3679.0,1049.0,116269.0
1735,3500.0,40.0,4010.0,1157.0,108417.0
1736,3500.0,45.0,4326.0,1198.0,107226.0
1737,3500.0,50.0,4478.0,1247.0,98312.0
1738,3500.0,55.0,4511.0,1229.0,103237.0
1739,3500.0,60.0,4594.0,1235.0,96052.0
1740,3600.0,5.0,4470.0,1156.0,108505.0
1741,3600.0,10.0,4202.0,1089.0,115022.0
1742,3600.0,15.0,4246.0,1141.0,113059.0
1743,3600.0,20.0,4007.0,1104.0,114664.0
1744,3600.0,25.0,3802.0,1096.0,115170.0
1745,3600.0,30.0,3438.0,1026.0,120510.0
1746,3600.0,35.0,3731.0,1046.0,119262.0
1747,3600.0,40.0,4124.0,1155.0,110994.0
1748,3600.0,45.0,4270.0,1185.0,111031.0
1749,3600.0,50.0,4458.0,1265.0,100721.0
1750,3600.0,55.0,4467.0,1233.0,104867.0
1751,3600.0,60.0,4671.0,1253.0,101259.0
1752,3700.0,5.0,4197.0,1108.0,111119.0
1753,3700.0,10.0,4292.0,1124.0,112231.0
1754,3700.0,15.0,4164.0,1120.0,115063.0
1755,3700.0,20.0,3896.0,1075.0,119155.0
1756,3700.0,25.0,3868.0,1121.0,117164.0
1757,3700.0,30.0,3628.0,1059.0,118639.0
1758,3700.0,35.0,3722.0,1070.0,119279.0
1759,3700.0,40.0,4068.0,1140.0,113701.0
1760,3700.0,45.0,4340.0,1205.0,108678.0
1761,3700.0,50.0,4303.0,1219.0,103796.0
1762,3700.0,55.0,4541.0,1243.0,104195.0
1763,3700.0,60.0,4451.0,1215.0,99884.0
1764,3800.0,5.0,4434.0,1165.0,113407.0
1765,3800.0,10.0,4292.0,1125.0,118261.0
1766,3800.0,15.0,4227.0,1141.0,113546.0
1767,3800.0,20.0,4005.0,1069.0,118710.0
1768,3800.0,25.0,3654.0,1082.0,117288.0
1769,3800.0,30.0,3536.0,1031.0,121956.0
1770,3800.0,35.0,3792.0,1059.0,118394.0
1771,3800.0,40.0,4063.0,1139.0,109098.0
1772,3800.0,45.0,4240.0,1189.0,112384.0
1773,3800.0,50.0,4334.0,1234.0,100837.0
1774,3800.0,55.0,4464.0,1238.0,104968.0
1775,3800.0,60.0,4666.0,1268.0,96963.0
1776,3900.0,5.0,4452.0,1154.0,111712.0
1777,3900.0,10.0,4349.0,1153.0,113879.0
1778,3900.0,15.0,4230.0,1126.0,116694.0
1779,3900.0,20.0,3795.0,1047.0,122083.0
1780,3900.0,25.0,3857.0,1114.0,117072.0
1781,3900.0,30.0,3613.0,1080.0,119487.0
1782,3900.0,35.0,3800.0,1081.0,118327.0
1783,3900.0,40.0,3920.0,1111.0,112313.0
1784,3900.0,45.0,4317.0,1211.0,111150.0
1785,3900.0,50.0,4578.0,1296.0,100324.0
1786,3900.0,55.0,4398.0,1210.0,106356.0
1787,3900.0,60.0,4571.0,1253.0,98172.0
1788,4000.0,5.0,4428.0,1161.0,114301.0
1789,4000.0,10.0,4262.0,1130.0,111520.0
1790,4000.0,15.0,4194.0,1138.0,115853.0
1791,4000.0,20.0,4072.0,1080.0,120331.0
1792,4000.0,25.0,3764.0,1088.0,118410.0
1793,4000.0,30.0,3592.0,1043.0,121111.0
1794,4000.0,35.0,3840.0,1066.0,124055.0
1795,4000.0,40.0,4032.0,1136.0,113941.0
1796,4000.0,45.0,4236.0,1189.0,112232.0
1797,4000.0,50.0,4534.0,1272.0,103250.0
1798,4000.0,55.0,4572.0,1264.0,105028.0
1799,4000.0,60.0,4565.0,1233.0,100532.0
1800,4100.0,5.0,4390.0,1129.0,116712.0
1801,4100.0,10.0,4234.0,1127.0,114472.0
1802,4100.0,15.0,4306.0,1155.0,120256.0
1803,4100.0,20.0,3904.0,1071.0,121819.0
1804,4100.0,25.0,3833.0,1104.0,119936.0
1805,4100.0,30.0,3711.0,1054.0,122810.0
1806,4100.0,35.0,3826.0,1086.0,122631.0
1807,4100.0,40.0,3976.0,1127.0,113740.0
1808,4100.0,45.0,4311.0,1212.0,112107.0
1809,4100.0,50.0,4553.0,1254.0,104493.0
1810,4100.0,55.0,4303.0,1213.0,110943.0
1811,4100.0,60.0,4484.0,1230.0,103587.0
1812,4200.0,5.0,4497.0,1167.0,113271.0
1813,4200.0,10.0,4470.0,1166.0,115333.0
1814,4200.0,15.0,4153.0,1132.0,114797.0
1815,4200.0,20.0,3930.0,1063.0,121156.0
1816,4200.0,25.0,3850.0,1076.0,121640.0
1817,4200.0,30.0,3581.0,1073.0,125950.0
1818,4200.0,35.0,3733.0,1058.0,121433.0
1819,4200.0,40.0,4095.0,1154.0,114663.0
1820,4200.0,45.0,4272.0,1189.0,115202.0
1821,4200.0,50.0,4428.0,1251.0,104991.0
1822,4200.0,55.0,4263.0,1212.0,107102.0
1823,4200.0,60.0,4769.0,1256.0,104427.0
1824,4300.0,5.0,4504.0,1160.0,113626.0
1825,4300.0,10.0,4080.0,1086.0,117861.0
1826,4300.0,15.0,4286.0,1129.0,120207.0
1827,4300.0,20.0,3864.0,1079.0,122914.0
1828,4300.0,25.0,3807.0,1088.0,122206.0
1829,4300.0,30.0,3696.0,1066.0,127242.0
1830,4300.0,35.0,3818.0,1055.0,123025.0
1831,4300.0,40.0,4086.0,1147.0,114023.0
1832,4300.0,45.0,4288.0,1215.0,108914.0
1833,4300.0,50.0,4378.0,1244.0,105374.0
1834,4300.0,55.0,4546.0,1244.0,108687.0
1835,4300.0,60.0,4437.0,1217.0,103540.0
1836,4400.0,5.0,4378.0,1146.0,117402.0
1837,4400.0,10.0,4285.0,1078.0,116754.0
1838,4400.0,15.0,4178.0,1120.0,119158.0
1839,4400.0,20.0,3999.0,1080.0,123121.0
1840,4400.0,25.0,3837.0,1097.0,121432.0
1841,4400.0,30.0,3703.0,1067.0,125009.0
1842,4400.0,35.0,3945.0,1114.0,122029.0
1843,4400.0,40.0,4085.0,1149.0,116660.0
1844,4400.0,45.0,4263.0,1214.0,113937.0
1845,4400.0,50.0,4451.0,1262.0,108755.0
1846,4400.0,55.0,4566.0,1255.0,110094.0
1847,4400.0,60.0,4737.0,1272.0,104745.0
1848,4500.0,5.0,4525.0,1153.0,116112.0
1849,4500.0,10.0,4369.0,1139.0,125141.0
1850,4500.0,15.0,4047.0,1104.0,122460.0
1851,4500.0,20.0,3893.0,1058.0,126393.0
1852,4500.0,25.0,3722.0,1087.0,124691.0
1853,4500.0,30.0,3655.0,1049.0,130605.0
1854,4500.0,35.0,3783.0,1054.0,126389.0
1855,4500.0,40.0,3961.0,1121.0,117130.0
1856,4500.0,45.0,4461.0,1254.0,111985.0
1857,4500.0,50.0,4512.0,1251.0,108849.0
1858,4500.0,55.0,4564.0,1263.0,105760.0
1859,4500.0,60.0,4571.0,1246.0,103157.0
1860,4600.0,5.0,4524.0,1161.0,113680.0
1861,4600.0,10.0,4391.0,1148.0,120036.0
1862,4600.0,15.0,4242.0,1125.0,118533.0
1863,4600.0,20.0,3851.0,1063.0,127143.0
1864,4600.0,25.0,3696.0,1079.0,121118.0
1865,4600.0,30.0,3523.0,1030.0,126378.0
1866,4600.0,35.0,3714.0,1052.0,123664.0
1867,4600.0,40.0,4008.0,1144.0,117998.0
1868,4600.0,45.0,4379.0,1234.0,111385.0
1869,4600.0,50.0,4411.0,1249.0,111316.0
1870,4600.0,55.0,4418.0,1214.0,110511.0
1871,4600.0,60.0,4644.0,1240.0,105486.0
1872,4700.0,5.0,4399.0,1127.0,117440.0
1873,4700.0,10.0,4446.0,1160.0,119302.0
1874,4700.0,15.0,4079.0,1117.0,122971.0
1875,4700.0,20.0,3807.0,1051.0,127301.0
1876,4700.0,25.0,3664.0,1070.0,124764.0
1877,4700.0,30.0,3598.0,1073.0,132843.0
1878,4700.0,35.0,3771.0,1068.0,126694.0
1879,4700.0,40.0,3898.0,1100.0,119399.0
1880,4700.0,45.0,4281.0,1212.0,114309.0
1881,4700.0,50.0,4762.0,1306.0,106347.0
1882,4700.0,55.0,4543.0,1255.0,108865.0
1883,4700.0,60.0,4535.0,1236.0,108102.0
1884,4800.0,5.0,4494.0,1168.0,116890.0
1885,4800.0,10.0,4145.0,1114.0,120657.0
1886,4800.0,15.0,4258.0,1137.0,119507.0
1887,4800.0,20.0,3925.0,1053.0,129910.0
1888,4800.0,25.0,3639.0,1077.0,123769.0
1889,4800.0,30.0,3610.0,1045.0,130552.0
1890,4800.0,35.0,3775.0,1084.0,129845.0
1891,4800.0,40.0,3884.0,1114.0,117037.0
1892,4800.0,45.0,4117.0,1176.0,118480.0
1893,4800.0,50.0,4494.0,1269.0,109905.0
1894,4800.0,55.0,4524.0,1248.0,110990.0
1895,4800.0,60.0,4356.0,1205.0,108600.0
1896,4900.0,5.0,4356.0,1142.0,117214.0
1897,4900.0,10.0,4130.0,1085.0,123437.0
1898,4900.0,15.0,4039.0,1101.0,124565.0
1899,4900.0,20.0,3855.0,1054.0,131281.0
1900,4900.0,25.0,3782.0,1073.0,129575.0
1901,4900.0,30.0,3630.0,1071.0,127006.0
1902,4900.0,35.0,3847.0,1074.0,131630.0
1903,4900.0,40.0,4002.0,1137.0,119924.0
1904,4900.0,45.0,4411.0,1208.0,117993.0
1905,4900.0,50.0,4463.0,1234.0,111332.0
1906,4900.0,55.0,4448.0,1218.0,113983.0
1907,4900.0,60.0,4478.0,1221.0,111332.0
1908,5000.0,5.0,4406.0,1164.0,119894.0
1909,5000.0,10.0,4234.0,1104.0,125026.0
1910,5000.0,15.0,4269.0,1122.0,120980.0
1911,5000.0,20.0,4088.0,1069.0,128329.0
1912,5000.0,25.0,3804.0,1080.0,126096.0
1913,5000.0,30.0,3715.0,1078.0,127541.0
1914,5000.0,35.0,3854.0,1076.0,126141.0
1915,5000.0,40.0,4003.0,1134.0,123418.0
1916,5000.0,45.0,4231.0,1165.0,117224.0
1917,5000.0,50.0,4616.0,1289.0,110009.0
1918,5000.0,55.0,4602.0,1259.0,111974.0
1919,5000.0,60.0,4640.0,1255.0,108074.0
